Father_Alive,Mother_Alive,Age,Ever_Pregnant,Ever_Married,Attending_School,Rural,Highest_Grade_Baseline,Cash_Transfer,English_Scores,Math_Scores
1,1,16.0,0,0,0,1,6.0,0,8.0,4.0
0,1,15.0,0,0,1,0,10.0,0,7.0,12.0
1,1,14.0,0,0,0,0,6.0,1,9.0,7.0
1,0,14.0,0,1,1,1,12.0,1,7.0,9.0
1,1,15.0,1,0,0,1,2.0,1,7.0,5.0
1,0,13.0,0,0,1,0,6.0,1,11.0,8.0
1,1,18.0,0,0,1,1,4.0,0,4.0,6.0
0,1,16.0,1,0,0,1,9.0,1,7.0,5.0
0,1,15.0,0,0,0,1,1.0,0,6.0,8.0
1,1,14.0,0,1,1,1,8.0,1,7.0,8.0
0,1,15.0,0,0,1,1,7.0,1,9.0,6.0
1,0,17.0,1,0,0,1,11.0,1,10.0,4.0
1,1,17.0,0,0,1,1,7.0,1,9.0,6.0
0,1,13.0,0,0,1,1,7.0,1,10.0,9.0
1,0,13.0,0,0,1,1,9.0,0,7.0,7.0
1,1,19.0,0,0,1,1,5.0,1,10.0,9.0
1,1,17.0,0,0,1,1,7.0,1,6.0,6.0
0,0,16.0,1,1,0,0,7.0,1,4.0,8.0
0,1,15.0,1,0,0,1,4.0,0,5.0,3.0
0,1,17.0,1,1,1,1,11.0,0,12.0,10.0
0,1,13.0,1,0,1,1,8.0,1,7.0,8.0
0,1,18.0,0,0,0,1,9.0,0,12.0,5.0
1,0,15.0,1,0,0,1,8.0,0,8.0,4.0
0,1,17.0,0,0,0,1,8.0,0,6.0,7.0
1,0,16.0,0,0,1,0,9.0,1,11.0,10.0
1,1,15.0,0,0,0,1,6.0,1,7.0,8.0
1,1,15.0,0,0,1,1,5.0,0,8.0,8.0
0,0,17.0,1,1,1,1,7.0,1,10.0,9.0
1,1,17.0,0,0,0,1,6.0,0,7.0,6.0
1,1,13.0,0,0,1,1,5.0,1,9.0,6.0
1,0,13.0,0,0,0,1,9.0,0,3.0,4.0
0,1,13.0,0,0,1,1,5.0,0,6.0,12.0
1,1,13.0,1,0,0,1,5.0,1,5.0,6.0
1,1,13.0,0,0,0,1,5.0,1,6.0,10.0
1,1,16.0,0,0,1,1,5.0,0,10.0,6.0
1,1,14.0,1,0,0,1,7.0,0,6.0,5.0
1,1,17.0,0,0,0,1,5.0,0,7.0,6.0
1,1,18.0,0,0,1,1,9.0,0,10.0,5.0
0,0,15.0,1,0,1,1,6.0,0,6.0,9.0
0,0,18.0,1,1,1,1,8.0,0,9.0,8.0
1,1,15.0,0,0,1,1,7.0,1,11.0,6.0
1,1,14.0,0,0,0,1,6.0,0,4.0,10.0
0,1,15.0,1,0,1,1,8.0,1,8.0,7.0
1,1,17.0,0,0,1,1,6.0,0,8.0,8.0
1,0,13.0,0,0,0,1,6.0,0,4.0,8.0
0,1,15.0,1,1,1,1,8.0,1,8.0,10.0
1,1,16.0,0,0,1,1,11.0,1,7.0,7.0
1,1,16.0,1,1,0,0,7.0,0,9.0,2.0
1,1,14.0,0,0,1,0,6.0,0,9.0,6.0
1,1,16.0,0,0,1,0,10.0,1,10.0,9.0
1,0,16.0,0,0,0,1,5.0,1,9.0,9.0
1,1,14.0,0,0,0,0,11.0,0,6.0,11.0
0,1,19.0,0,0,1,1,8.0,1,8.0,11.0
1,1,16.0,0,0,1,1,10.0,0,8.0,9.0
1,1,14.0,0,0,0,1,7.0,0,5.0,6.0
1,0,14.0,0,0,1,1,6.0,0,9.0,4.0
1,1,17.0,0,0,1,1,6.0,0,9.0,6.0
1,1,15.0,0,0,1,0,7.0,1,11.0,9.0
1,1,20.0,0,0,1,1,9.0,0,7.0,9.0
1,1,14.0,0,0,1,1,6.0,1,4.0,9.0
1,0,13.0,0,0,1,1,8.0,1,7.0,7.0
1,0,15.0,0,1,0,0,8.0,0,12.0,6.0
1,1,15.0,0,0,1,1,10.0,1,6.0,11.0
1,1,13.0,0,0,1,1,8.0,0,7.0,6.0
1,1,14.0,0,0,0,0,9.0,0,8.0,3.0
1,1,14.0,0,0,1,1,6.0,0,3.0,6.0
0,1,14.0,0,0,1,0,8.0,0,9.0,8.0
1,1,14.0,0,0,1,1,5.0,1,5.0,7.0
0,1,13.0,1,1,1,1,4.0,0,9.0,12.0
1,1,17.0,0,0,0,1,9.0,0,5.0,7.0
0,0,14.0,0,0,1,1,10.0,0,11.0,11.0
1,1,13.0,1,0,0,1,6.0,0,6.0,9.0
0,0,13.0,0,1,1,1,11.0,0,10.0,3.0
1,0,14.0,0,1,1,1,10.0,1,12.0,10.0
0,1,15.0,0,0,0,0,7.0,0,7.0,10.0
1,1,16.0,0,0,1,1,5.0,0,8.0,5.0
1,1,13.0,0,0,1,0,6.0,1,12.0,9.0
1,1,14.0,1,0,0,1,9.0,1,5.0,7.0
1,1,13.0,0,0,0,1,7.0,1,6.0,4.0
1,1,13.0,0,0,0,1,9.0,0,5.0,10.0
1,1,15.0,0,0,1,1,9.0,0,7.0,6.0
1,1,18.0,0,0,1,1,8.0,1,5.0,6.0
1,0,16.0,0,0,1,0,9.0,1,9.0,12.0
0,1,14.0,0,0,0,1,11.0,1,9.0,6.0
1,1,15.0,1,0,0,1,6.0,1,3.0,6.0
1,1,13.0,0,0,0,1,8.0,1,3.0,8.0
1,1,15.0,0,0,1,1,4.0,1,7.0,6.0
1,1,14.0,0,0,1,1,6.0,0,8.0,8.0
1,1,13.0,0,0,1,1,9.0,1,6.0,8.0
0,0,16.0,1,1,0,1,8.0,1,6.0,7.0
1,1,20.0,0,0,0,1,9.0,0,6.0,9.0
1,1,18.0,0,0,1,1,6.0,1,6.0,8.0
1,0,15.0,0,0,0,1,7.0,1,8.0,7.0
0,1,17.0,0,0,0,1,8.0,1,7.0,6.0
1,1,17.0,0,0,1,0,9.0,1,7.0,6.0
1,1,14.0,0,0,1,1,6.0,1,11.0,8.0
1,1,16.0,0,0,1,1,8.0,1,9.0,10.0
1,1,13.0,0,1,1,1,6.0,1,6.0,6.0
0,1,13.0,0,0,0,1,7.0,0,9.0,8.0
1,1,15.0,0,0,1,1,11.0,0,8.0,6.0
0,1,14.0,0,0,1,1,8.0,1,8.0,9.0
1,1,19.0,0,0,1,1,6.0,0,6.0,6.0
0,1,16.0,0,0,1,1,6.0,0,12.0,8.0
0,0,14.0,1,0,0,1,7.0,1,7.0,6.0
1,1,14.0,0,0,1,0,9.0,1,10.0,11.0
1,1,15.0,0,0,0,1,12.0,0,7.0,8.0
1,0,13.0,1,0,1,1,7.0,0,7.0,7.0
1,0,16.0,1,0,1,0,11.0,1,11.0,8.0
1,1,13.0,0,1,0,1,4.0,0,9.0,6.0
0,1,16.0,1,0,0,1,7.0,1,9.0,5.0
1,1,15.0,0,0,1,1,7.0,1,9.0,6.0
0,1,16.0,0,0,1,1,8.0,1,10.0,9.0
0,1,13.0,0,0,0,0,8.0,0,10.0,11.0
1,1,15.0,0,0,1,1,7.0,1,7.0,10.0
0,1,20.0,0,0,1,1,6.0,0,8.0,9.0
1,1,14.0,0,0,0,1,6.0,0,3.0,6.0
0,0,16.0,1,0,0,1,10.0,0,10.0,10.0
1,0,18.0,0,0,0,1,6.0,1,6.0,7.0
0,1,17.0,1,0,0,1,6.0,1,3.0,8.0
0,1,16.0,1,0,0,0,9.0,0,10.0,6.0
0,1,13.0,1,1,1,1,9.0,1,5.0,8.0
1,0,13.0,0,0,1,1,8.0,0,9.0,11.0
0,1,15.0,0,0,0,0,8.0,0,6.0,11.0
1,1,14.0,0,0,1,1,8.0,1,7.0,11.0
1,1,15.0,0,0,1,0,7.0,1,9.0,8.0
1,1,15.0,0,0,1,1,9.0,1,10.0,11.0
1,1,14.0,0,0,0,1,4.0,1,6.0,4.0
1,1,16.0,0,0,1,1,5.0,1,5.0,9.0
1,1,19.0,0,0,1,1,11.0,0,9.0,7.0
1,1,13.0,0,0,1,1,4.0,1,10.0,9.0
1,1,14.0,0,0,0,1,7.0,0,5.0,6.0
1,1,15.0,0,0,0,0,6.0,1,6.0,7.0
1,1,17.0,0,0,0,1,6.0,1,3.0,4.0
1,1,13.0,0,0,1,0,8.0,0,6.0,8.0
1,1,13.0,0,0,1,1,7.0,1,10.0,7.0
1,1,13.0,0,0,1,1,9.0,1,7.0,9.0
1,1,14.0,0,0,1,1,6.0,1,5.0,3.0
1,0,16.0,0,0,0,0,5.0,1,7.0,8.0
1,1,17.0,0,0,0,1,7.0,0,7.0,7.0
1,0,16.0,0,0,1,0,11.0,1,10.0,10.0
0,1,14.0,1,0,1,1,5.0,1,9.0,8.0
1,1,16.0,0,0,0,1,6.0,0,9.0,7.0
1,1,15.0,0,0,1,1,12.0,1,12.0,8.0
0,1,13.0,0,0,0,1,8.0,1,11.0,5.0
0,1,13.0,0,0,1,1,8.0,1,8.0,9.0
0,0,18.0,0,1,1,1,8.0,1,9.0,10.0
1,0,16.0,0,0,1,0,7.0,1,8.0,9.0
0,1,13.0,1,0,0,1,9.0,1,7.0,10.0
0,0,17.0,1,0,1,1,10.0,0,10.0,7.0
0,1,17.0,0,0,1,1,8.0,0,8.0,8.0
1,1,14.0,0,0,1,1,6.0,0,8.0,7.0
0,0,16.0,1,0,1,1,8.0,0,9.0,10.0
1,1,13.0,0,0,0,1,7.0,0,8.0,3.0
1,1,17.0,0,0,1,1,4.0,0,7.0,10.0
1,1,17.0,0,0,1,1,4.0,0,7.0,9.0
0,1,13.0,1,1,1,0,8.0,1,6.0,10.0
0,1,16.0,0,0,1,1,6.0,1,9.0,11.0
1,1,14.0,0,0,0,1,5.0,0,6.0,8.0
1,1,15.0,0,0,1,1,7.0,1,12.0,9.0
1,0,14.0,1,0,0,1,10.0,0,10.0,8.0
0,1,13.0,0,0,1,1,5.0,1,11.0,11.0
1,1,19.0,0,0,1,1,6.0,1,9.0,5.0
0,1,14.0,1,0,0,1,8.0,0,8.0,9.0
0,1,15.0,0,1,1,0,10.0,0,9.0,12.0
0,1,13.0,0,0,1,1,8.0,0,10.0,10.0
0,1,13.0,0,0,0,0,9.0,1,12.0,10.0
1,1,16.0,0,0,1,1,7.0,1,10.0,8.0
1,1,16.0,0,0,1,1,4.0,1,7.0,5.0
0,0,17.0,1,1,0,1,7.0,1,8.0,7.0
1,1,17.0,0,0,1,0,5.0,1,7.0,8.0
1,1,15.0,1,0,1,0,7.0,1,6.0,8.0
1,1,14.0,0,0,0,0,8.0,0,3.0,7.0
1,0,16.0,0,0,1,1,9.0,0,10.0,5.0
1,1,14.0,0,0,0,0,6.0,1,6.0,10.0
0,1,17.0,0,0,1,0,9.0,1,11.0,12.0
1,1,16.0,1,0,0,1,9.0,1,7.0,6.0
1,1,17.0,0,0,1,0,6.0,0,8.0,11.0
0,1,16.0,0,0,1,1,11.0,0,10.0,7.0
0,1,13.0,0,1,1,1,4.0,1,7.0,6.0
1,0,13.0,1,0,1,0,9.0,1,9.0,4.0
1,0,16.0,1,0,1,1,5.0,1,8.0,6.0
1,1,19.0,0,0,1,1,9.0,1,7.0,8.0
1,1,13.0,0,0,1,0,6.0,0,12.0,9.0
1,1,15.0,1,0,0,1,6.0,1,4.0,6.0
0,0,16.0,1,1,1,0,6.0,1,8.0,12.0
1,1,13.0,0,0,1,1,2.0,1,6.0,9.0
1,1,16.0,0,0,0,0,6.0,0,7.0,7.0
1,1,15.0,0,0,0,1,7.0,0,5.0,9.0
0,0,13.0,1,1,0,1,9.0,1,10.0,7.0
1,1,18.0,1,0,1,1,10.0,1,11.0,10.0
1,1,13.0,0,0,1,1,4.0,1,8.0,6.0
1,1,13.0,1,0,1,1,6.0,1,8.0,10.0
1,1,16.0,1,0,1,1,3.0,1,7.0,9.0
0,1,16.0,0,0,1,1,7.0,1,7.0,5.0
0,1,16.0,0,0,0,1,7.0,0,5.0,9.0
1,1,14.0,0,0,1,1,4.0,0,9.0,5.0
1,1,15.0,0,0,1,1,5.0,1,9.0,6.0
1,1,14.0,0,0,1,1,6.0,1,12.0,9.0
1,1,13.0,1,0,0,1,4.0,1,3.0,4.0
1,0,17.0,0,0,1,1,5.0,1,10.0,11.0
1,1,15.0,0,0,1,0,10.0,1,10.0,9.0
0,1,15.0,0,0,1,1,6.0,0,9.0,12.0
1,1,13.0,0,0,1,1,4.0,1,7.0,9.0
1,0,15.0,0,0,1,1,8.0,1,10.0,8.0
1,1,13.0,1,0,0,1,10.0,1,8.0,5.0
1,1,15.0,0,0,0,1,10.0,0,7.0,5.0
0,1,15.0,1,1,1,1,7.0,1,3.0,9.0
1,1,14.0,0,0,0,1,6.0,0,8.0,8.0
1,0,17.0,0,0,1,1,9.0,1,9.0,11.0
0,1,16.0,0,0,1,1,9.0,0,5.0,9.0
0,1,17.0,0,0,1,1,10.0,0,6.0,7.0
1,1,13.0,0,0,0,1,6.0,0,5.0,9.0
1,1,14.0,0,0,1,0,8.0,0,8.0,8.0
1,1,15.0,0,0,0,1,5.0,1,7.0,4.0
1,1,14.0,1,0,0,1,7.0,1,8.0,5.0
0,1,15.0,1,0,1,1,5.0,1,9.0,8.0
1,0,13.0,0,0,1,0,6.0,1,6.0,9.0
1,1,14.0,0,0,1,1,8.0,1,10.0,9.0
1,1,13.0,0,0,1,1,8.0,1,7.0,7.0
0,1,13.0,0,0,1,1,6.0,1,8.0,10.0
1,0,16.0,0,0,0,1,8.0,0,5.0,6.0
0,1,15.0,0,0,1,0,7.0,0,10.0,7.0
1,1,18.0,0,0,1,1,6.0,1,6.0,10.0
0,1,14.0,1,0,0,1,8.0,0,3.0,8.0
1,1,15.0,0,0,1,1,7.0,1,11.0,11.0
0,1,13.0,0,0,1,0,9.0,1,10.0,7.0
0,1,20.0,0,0,1,1,5.0,0,9.0,7.0
1,1,15.0,1,0,1,1,6.0,1,7.0,6.0
0,1,17.0,1,0,0,0,8.0,0,7.0,9.0
0,0,16.0,0,0,1,0,11.0,0,10.0,10.0
1,0,14.0,0,0,1,0,10.0,0,8.0,9.0
1,1,13.0,0,0,0,1,5.0,0,8.0,6.0
1,1,15.0,0,0,1,1,6.0,1,8.0,8.0
1,1,14.0,0,0,0,1,7.0,0,7.0,7.0
1,1,15.0,0,0,1,1,7.0,1,6.0,3.0
1,1,16.0,0,0,0,1,9.0,0,6.0,6.0
1,1,15.0,0,0,1,1,5.0,1,8.0,9.0
1,1,16.0,0,0,0,1,2.0,1,3.0,7.0
1,0,15.0,1,1,0,0,8.0,0,9.0,8.0
1,0,13.0,0,0,0,1,9.0,0,7.0,12.0
0,1,18.0,0,0,1,1,7.0,1,9.0,6.0
1,1,17.0,0,0,1,1,8.0,1,9.0,5.0
1,0,13.0,0,0,1,0,6.0,0,10.0,9.0
1,1,16.0,0,0,1,1,4.0,0,12.0,5.0
0,1,14.0,0,0,1,0,9.0,1,10.0,11.0
1,1,14.0,1,0,0,1,5.0,1,6.0,4.0
1,1,15.0,0,0,0,1,7.0,0,4.0,8.0
1,1,18.0,0,0,1,1,1.0,0,6.0,4.0
1,1,17.0,0,0,0,1,6.0,0,9.0,6.0
1,1,16.0,0,0,1,1,4.0,0,7.0,10.0
1,0,13.0,0,0,0,1,9.0,0,4.0,6.0
0,0,20.0,1,1,1,1,7.0,0,9.0,8.0
0,1,17.0,0,0,1,1,8.0,0,7.0,8.0
0,1,13.0,0,0,1,1,7.0,1,10.0,9.0
0,0,16.0,0,1,1,1,5.0,1,6.0,10.0
1,1,14.0,0,0,1,1,7.0,1,10.0,8.0
1,1,16.0,0,0,1,1,5.0,1,6.0,12.0
1,1,16.0,0,0,1,1,8.0,1,6.0,5.0
0,1,13.0,1,0,0,1,5.0,0,8.0,8.0
1,0,19.0,0,0,0,0,6.0,1,10.0,9.0
1,1,15.0,0,0,0,0,5.0,1,11.0,9.0
1,1,17.0,0,0,0,0,7.0,0,9.0,7.0
1,0,18.0,0,0,0,1,7.0,0,3.0,10.0
0,1,14.0,1,0,0,0,10.0,1,6.0,8.0
1,1,13.0,0,0,1,1,4.0,1,12.0,7.0
0,0,17.0,1,1,1,1,11.0,0,10.0,9.0
1,1,18.0,0,0,1,0,8.0,1,6.0,12.0
1,0,13.0,1,1,1,1,9.0,0,10.0,9.0
1,0,19.0,1,0,0,1,9.0,1,7.0,5.0
1,0,15.0,0,1,1,1,10.0,1,7.0,9.0
0,1,16.0,0,0,1,1,7.0,0,8.0,10.0
0,1,16.0,0,0,1,0,5.0,0,11.0,12.0
1,0,13.0,1,1,0,1,4.0,1,6.0,6.0
0,1,13.0,1,0,0,1,6.0,0,7.0,10.0
1,1,13.0,0,0,0,1,6.0,1,6.0,6.0
0,1,13.0,1,0,1,1,9.0,1,7.0,10.0
0,1,13.0,1,0,1,1,9.0,1,11.0,8.0
0,0,15.0,1,0,1,0,10.0,1,12.0,11.0
1,1,18.0,0,1,1,1,5.0,1,8.0,9.0
0,1,15.0,0,0,1,0,9.0,0,10.0,8.0
1,1,16.0,0,0,1,1,8.0,0,7.0,4.0
0,1,17.0,0,1,0,0,7.0,0,11.0,9.0
1,1,16.0,1,0,0,1,8.0,1,3.0,7.0
1,1,14.0,0,0,0,1,9.0,0,5.0,7.0
1,1,13.0,0,0,0,0,5.0,0,5.0,9.0
1,1,14.0,0,0,1,1,5.0,1,9.0,11.0
0,1,15.0,0,0,1,1,7.0,1,7.0,9.0
1,0,13.0,0,0,1,1,8.0,0,7.0,9.0
1,0,16.0,0,0,0,1,4.0,1,5.0,6.0
1,1,14.0,0,0,0,0,6.0,0,7.0,5.0
1,0,16.0,0,0,0,1,8.0,0,8.0,7.0
1,1,13.0,1,0,0,1,7.0,0,5.0,9.0
0,1,13.0,0,0,1,1,10.0,0,9.0,8.0
1,1,19.0,0,0,0,0,8.0,0,7.0,5.0
1,1,15.0,0,0,0,1,9.0,0,5.0,10.0
1,1,16.0,0,0,0,1,6.0,1,9.0,8.0
1,1,13.0,0,0,1,1,8.0,0,8.0,8.0
0,0,14.0,1,1,1,1,11.0,1,7.0,8.0
0,1,16.0,0,0,1,1,7.0,0,8.0,7.0
0,0,18.0,0,1,1,1,7.0,1,9.0,7.0
0,1,14.0,0,0,0,1,8.0,1,8.0,6.0
0,0,13.0,1,0,1,1,8.0,1,9.0,10.0
1,1,15.0,0,0,1,1,8.0,1,7.0,8.0
1,1,13.0,0,0,0,1,6.0,0,5.0,8.0
1,1,15.0,0,0,1,0,7.0,0,10.0,10.0
1,1,15.0,0,0,1,1,6.0,1,10.0,7.0
1,1,16.0,0,0,1,1,3.0,1,8.0,7.0
1,1,18.0,0,0,1,1,6.0,1,9.0,7.0
0,1,16.0,0,0,0,1,7.0,1,5.0,8.0
1,0,16.0,0,0,1,1,7.0,1,6.0,10.0
0,1,15.0,0,0,1,0,12.0,1,9.0,6.0
1,1,14.0,1,0,0,1,9.0,0,11.0,8.0
1,1,13.0,0,0,0,1,8.0,1,7.0,6.0
1,1,13.0,0,0,0,0,7.0,1,7.0,6.0
0,0,15.0,1,1,0,1,9.0,1,6.0,8.0
1,1,13.0,0,0,1,1,6.0,0,7.0,3.0
1,1,15.0,1,0,1,1,7.0,1,9.0,6.0
1,1,14.0,0,0,1,1,4.0,0,11.0,7.0
0,0,13.0,0,0,1,1,7.0,0,6.0,9.0
0,1,14.0,0,0,1,1,10.0,0,8.0,6.0
1,1,16.0,0,0,1,1,5.0,0,7.0,9.0
1,1,17.0,1,0,0,1,2.0,0,9.0,5.0
1,1,13.0,0,0,1,1,6.0,1,8.0,9.0
1,0,15.0,1,1,1,1,8.0,1,11.0,8.0
1,1,17.0,0,0,0,0,10.0,0,4.0,7.0
1,1,14.0,0,0,0,1,6.0,1,7.0,7.0
0,0,15.0,1,1,1,1,7.0,1,11.0,9.0
0,0,13.0,1,0,1,1,7.0,1,5.0,8.0
1,1,14.0,1,0,0,1,8.0,1,6.0,6.0
1,1,19.0,0,0,0,1,9.0,1,10.0,4.0
1,0,13.0,0,0,1,1,10.0,0,9.0,7.0
0,1,13.0,0,0,1,0,8.0,0,8.0,6.0
1,1,15.0,0,0,1,1,5.0,1,7.0,7.0
0,1,17.0,1,0,0,1,6.0,1,5.0,7.0
0,0,17.0,1,0,0,1,8.0,0,4.0,5.0
0,1,14.0,0,0,1,1,7.0,0,9.0,8.0
1,1,15.0,0,0,0,1,8.0,0,8.0,7.0
1,1,16.0,0,0,1,1,10.0,1,6.0,8.0
1,0,16.0,1,0,0,1,8.0,1,7.0,7.0
1,0,14.0,0,0,0,1,4.0,0,8.0,8.0
1,1,18.0,0,0,1,1,8.0,1,5.0,4.0
1,0,14.0,0,0,1,0,11.0,0,11.0,9.0
1,0,16.0,0,0,1,1,6.0,1,8.0,6.0
1,1,15.0,0,0,1,0,6.0,1,6.0,6.0
0,1,14.0,0,0,0,1,9.0,0,3.0,4.0
1,1,14.0,0,0,1,1,11.0,0,7.0,5.0
1,0,14.0,0,0,0,0,8.0,0,6.0,5.0
1,1,14.0,0,0,0,1,10.0,0,4.0,8.0
1,1,13.0,0,0,1,1,6.0,0,5.0,4.0
0,1,16.0,0,0,1,1,10.0,0,7.0,9.0
1,1,14.0,0,0,1,0,8.0,1,8.0,6.0
1,1,14.0,0,0,1,1,4.0,0,5.0,12.0
1,1,16.0,0,0,1,0,6.0,0,9.0,9.0
1,1,15.0,0,0,0,1,7.0,1,8.0,11.0
1,1,13.0,0,0,1,0,8.0,1,9.0,8.0
0,1,13.0,0,0,1,0,5.0,1,9.0,8.0
1,1,15.0,1,0,0,1,9.0,1,8.0,9.0
1,0,14.0,0,1,1,1,4.0,0,9.0,8.0
1,0,17.0,0,0,1,0,4.0,1,12.0,7.0
0,1,13.0,0,0,1,1,4.0,1,5.0,8.0
1,1,13.0,0,0,1,1,5.0,1,9.0,6.0
0,1,13.0,0,1,0,1,12.0,0,7.0,7.0
1,1,16.0,1,1,1,1,9.0,1,6.0,6.0
1,1,16.0,0,0,1,1,6.0,1,10.0,4.0
0,1,13.0,0,0,1,1,11.0,0,11.0,8.0
1,1,16.0,0,0,0,1,6.0,1,5.0,7.0
0,0,17.0,0,1,0,1,9.0,0,8.0,12.0
1,1,13.0,0,0,1,0,9.0,1,8.0,9.0
0,1,14.0,1,0,0,1,4.0,1,5.0,7.0
0,1,18.0,0,0,0,0,9.0,0,7.0,8.0
0,0,17.0,1,1,1,1,8.0,0,9.0,8.0
1,1,15.0,1,0,0,0,10.0,0,7.0,9.0
0,1,16.0,0,0,1,0,7.0,1,8.0,11.0
1,1,19.0,0,0,1,1,6.0,1,10.0,10.0
1,0,16.0,0,0,1,1,7.0,1,7.0,9.0
1,1,13.0,0,0,1,1,4.0,1,7.0,6.0
0,1,18.0,0,0,1,1,11.0,1,12.0,8.0
0,1,13.0,0,0,1,1,7.0,1,10.0,6.0
1,1,17.0,1,0,0,0,11.0,0,11.0,11.0
1,1,16.0,0,0,1,1,5.0,1,11.0,8.0
0,1,17.0,1,0,0,0,8.0,0,3.0,11.0
1,1,18.0,0,0,1,0,5.0,1,8.0,10.0
0,1,13.0,0,0,0,0,9.0,0,10.0,10.0
1,1,15.0,0,0,1,1,6.0,0,10.0,12.0
0,0,19.0,1,0,1,0,10.0,1,10.0,10.0
0,1,17.0,0,0,1,0,10.0,1,10.0,8.0
0,1,15.0,0,1,1,0,9.0,1,8.0,6.0
1,0,13.0,0,0,0,0,7.0,0,9.0,6.0
1,1,15.0,0,0,1,1,6.0,0,3.0,10.0
1,0,13.0,1,0,1,1,7.0,0,11.0,10.0
1,0,13.0,1,0,0,1,9.0,0,7.0,6.0
1,0,16.0,0,1,1,1,10.0,0,10.0,9.0
1,0,15.0,0,0,1,1,9.0,0,10.0,10.0
0,1,13.0,1,0,0,1,5.0,1,5.0,10.0
1,1,16.0,1,0,0,1,4.0,0,5.0,9.0
0,1,14.0,0,0,1,1,8.0,1,9.0,9.0
1,1,19.0,0,0,0,1,9.0,0,7.0,6.0
1,0,15.0,0,0,0,1,8.0,1,6.0,8.0
1,1,18.0,0,0,1,1,8.0,0,6.0,5.0
1,1,13.0,0,0,0,1,8.0,1,5.0,5.0
1,0,16.0,0,1,1,1,7.0,1,9.0,5.0
0,0,19.0,0,1,1,1,10.0,0,8.0,9.0
1,1,16.0,0,0,0,1,6.0,0,8.0,5.0
0,1,17.0,0,0,1,1,6.0,1,10.0,7.0
0,1,13.0,0,0,1,1,6.0,1,8.0,10.0
1,1,16.0,0,0,1,1,5.0,1,11.0,8.0
1,1,15.0,0,0,1,1,9.0,0,8.0,8.0
1,1,17.0,0,0,1,1,8.0,1,12.0,8.0
1,1,17.0,0,0,1,1,3.0,1,11.0,11.0
1,1,13.0,0,0,1,1,5.0,1,8.0,10.0
1,1,14.0,0,0,0,1,6.0,0,8.0,5.0
1,1,14.0,0,0,1,1,4.0,1,2.0,7.0
1,1,15.0,0,0,1,1,8.0,0,8.0,5.0
1,1,13.0,0,0,1,1,9.0,0,9.0,6.0
1,1,13.0,1,0,0,1,5.0,1,1.0,6.0
1,1,17.0,1,0,0,1,9.0,0,8.0,2.0
1,1,15.0,0,0,1,1,5.0,0,8.0,8.0
1,1,13.0,0,0,1,1,12.0,0,5.0,8.0
1,1,14.0,1,0,1,1,8.0,1,7.0,5.0
1,1,17.0,0,0,0,0,8.0,0,8.0,6.0
0,0,13.0,1,1,0,1,8.0,0,6.0,8.0
0,1,15.0,0,0,1,1,9.0,0,7.0,10.0
1,1,15.0,0,0,1,1,4.0,1,9.0,11.0
1,1,15.0,0,0,1,1,8.0,1,9.0,7.0
1,1,16.0,0,0,1,1,11.0,0,7.0,5.0
1,1,19.0,0,0,0,1,9.0,0,8.0,1.0
0,1,16.0,0,0,0,1,5.0,0,4.0,5.0
1,0,14.0,0,0,0,0,7.0,0,9.0,6.0
0,1,18.0,0,0,1,0,6.0,1,8.0,12.0
1,1,13.0,1,0,1,1,7.0,1,8.0,5.0
1,1,16.0,0,0,1,0,8.0,1,8.0,10.0
1,1,18.0,0,0,0,1,7.0,1,6.0,8.0
1,1,17.0,0,0,1,1,7.0,1,8.0,6.0
1,1,17.0,0,0,1,0,6.0,1,11.0,12.0
1,1,13.0,0,0,1,0,7.0,1,3.0,10.0
1,1,15.0,0,0,0,0,3.0,1,8.0,3.0
1,1,14.0,0,0,0,1,8.0,1,8.0,9.0
1,1,18.0,0,0,0,1,8.0,1,8.0,6.0
0,0,17.0,0,0,0,1,5.0,0,7.0,7.0
1,1,16.0,0,0,1,0,8.0,1,6.0,10.0
1,1,17.0,0,0,0,1,9.0,0,10.0,4.0
0,1,14.0,0,0,1,0,12.0,0,12.0,8.0
0,1,16.0,0,0,0,1,6.0,0,7.0,8.0
1,0,15.0,1,0,1,1,5.0,0,6.0,10.0
1,1,13.0,0,0,1,1,7.0,0,7.0,7.0
1,1,16.0,0,0,1,1,6.0,0,8.0,10.0
0,1,16.0,0,0,0,0,9.0,0,9.0,9.0
0,1,17.0,0,0,1,1,7.0,1,8.0,5.0
0,1,16.0,0,0,0,0,9.0,0,7.0,6.0
0,1,17.0,0,0,1,1,9.0,0,9.0,10.0
1,0,13.0,0,0,1,0,6.0,1,5.0,12.0
0,1,14.0,0,0,1,1,8.0,1,7.0,12.0
1,1,15.0,0,0,1,1,7.0,1,6.0,5.0
1,1,14.0,1,0,0,1,8.0,1,5.0,7.0
0,1,15.0,1,0,0,1,6.0,1,6.0,5.0
1,1,14.0,0,0,0,0,10.0,0,12.0,8.0
0,1,16.0,0,0,1,1,6.0,0,11.0,7.0
1,1,13.0,0,0,1,0,10.0,0,12.0,7.0
0,0,15.0,1,1,1,1,4.0,1,9.0,7.0
0,1,15.0,0,0,1,0,10.0,1,9.0,9.0
1,1,15.0,0,0,0,0,6.0,0,7.0,6.0
1,1,13.0,0,0,0,1,2.0,0,4.0,7.0
1,0,18.0,0,0,1,1,8.0,1,11.0,8.0
0,1,15.0,0,0,1,1,5.0,1,8.0,9.0
1,1,13.0,0,0,1,1,8.0,1,8.0,6.0
1,0,17.0,0,0,1,0,7.0,1,10.0,10.0
1,1,15.0,0,0,0,0,3.0,1,7.0,8.0
1,1,15.0,0,0,1,1,10.0,0,10.0,6.0
0,1,15.0,1,0,1,1,11.0,1,5.0,9.0
1,1,16.0,1,1,0,1,5.0,0,7.0,9.0
1,0,15.0,0,0,0,1,11.0,0,9.0,9.0
0,1,13.0,0,0,0,1,6.0,1,5.0,8.0
1,1,13.0,0,0,1,1,8.0,1,10.0,5.0
0,1,16.0,0,0,1,1,5.0,0,9.0,9.0
0,0,13.0,1,1,1,1,11.0,1,7.0,5.0
0,1,17.0,1,0,1,0,10.0,1,10.0,5.0
0,1,13.0,0,0,0,0,7.0,0,10.0,7.0
0,1,13.0,0,0,1,1,7.0,1,7.0,9.0
0,1,13.0,0,0,1,1,9.0,0,9.0,11.0
1,1,13.0,0,0,0,1,3.0,1,5.0,3.0
1,1,13.0,0,0,0,1,4.0,0,9.0,9.0
1,1,14.0,0,0,1,1,7.0,0,4.0,7.0
1,1,13.0,0,0,1,1,10.0,1,8.0,8.0
1,1,13.0,0,0,1,1,7.0,1,11.0,12.0
1,1,14.0,0,0,1,1,7.0,0,7.0,10.0
1,1,17.0,0,0,0,1,4.0,0,8.0,7.0
1,0,13.0,1,0,1,1,11.0,1,8.0,7.0
0,1,15.0,1,0,1,1,8.0,1,7.0,6.0
0,1,18.0,1,0,1,1,6.0,1,10.0,7.0
1,1,13.0,0,0,0,1,10.0,0,6.0,3.0
1,1,14.0,0,0,0,0,6.0,0,9.0,9.0
1,1,14.0,0,0,1,1,7.0,1,7.0,7.0
0,1,17.0,0,0,1,0,7.0,0,11.0,9.0
1,1,16.0,1,1,0,1,3.0,1,6.0,4.0
1,1,16.0,0,0,1,0,7.0,1,8.0,10.0
1,1,20.0,0,0,0,1,8.0,0,6.0,5.0
1,1,18.0,0,0,1,1,2.0,1,2.0,9.0
1,1,15.0,0,0,1,1,10.0,1,9.0,5.0
1,0,15.0,0,1,0,0,6.0,0,7.0,7.0
1,1,13.0,0,0,0,1,7.0,0,7.0,4.0
1,1,13.0,0,0,1,1,8.0,0,8.0,7.0
1,1,15.0,0,0,1,0,5.0,0,9.0,11.0
1,1,13.0,0,0,0,1,8.0,1,5.0,4.0
0,1,16.0,0,0,0,0,12.0,0,8.0,6.0
1,0,13.0,0,0,1,1,6.0,0,9.0,8.0
0,1,14.0,0,0,1,1,8.0,1,8.0,6.0
0,1,13.0,1,0,1,1,8.0,0,7.0,8.0
1,1,19.0,0,0,1,1,6.0,0,4.0,7.0
1,0,17.0,1,0,1,1,10.0,0,4.0,9.0
1,1,14.0,0,0,0,1,8.0,0,7.0,6.0
1,1,15.0,1,0,1,1,9.0,1,7.0,10.0
1,1,18.0,0,0,1,1,7.0,0,10.0,8.0
0,1,13.0,0,1,1,1,9.0,0,8.0,6.0
0,1,19.0,0,0,1,1,4.0,1,9.0,8.0
1,0,13.0,0,1,0,1,5.0,0,8.0,5.0
0,1,15.0,1,0,1,1,4.0,0,6.0,7.0
1,1,13.0,0,0,1,1,6.0,1,5.0,10.0
1,1,13.0,0,0,0,0,6.0,1,7.0,10.0
0,1,17.0,0,0,1,0,4.0,0,12.0,12.0
0,1,15.0,1,1,0,1,7.0,1,10.0,7.0
1,0,13.0,0,0,0,0,10.0,1,7.0,2.0
1,0,13.0,0,0,1,0,7.0,0,9.0,12.0
1,1,17.0,0,1,0,1,7.0,1,7.0,5.0
0,0,15.0,0,0,1,1,8.0,1,11.0,9.0
1,1,18.0,0,0,0,1,11.0,0,6.0,5.0
1,1,16.0,1,0,0,1,6.0,1,4.0,5.0
1,1,15.0,0,0,1,1,4.0,1,8.0,10.0
0,0,15.0,1,0,0,1,9.0,0,9.0,8.0
1,0,14.0,0,0,1,1,6.0,0,10.0,10.0
1,1,15.0,0,0,0,0,5.0,0,12.0,8.0
1,1,15.0,0,0,0,0,7.0,0,10.0,7.0
1,1,17.0,0,0,1,1,8.0,1,9.0,7.0
1,1,15.0,0,0,1,0,4.0,1,8.0,11.0
1,1,17.0,0,0,0,0,8.0,1,9.0,5.0
1,1,17.0,0,0,0,1,8.0,1,8.0,7.0
1,1,15.0,0,0,1,0,8.0,0,10.0,10.0
1,0,13.0,0,0,0,0,12.0,0,8.0,8.0
0,1,15.0,1,1,0,1,7.0,0,6.0,7.0
0,1,13.0,0,0,1,0,9.0,0,12.0,10.0
0,1,13.0,1,0,0,1,6.0,0,12.0,9.0
1,0,16.0,0,0,1,1,8.0,1,10.0,10.0
1,1,16.0,0,0,0,1,6.0,1,6.0,8.0
1,1,15.0,0,0,0,0,5.0,0,6.0,12.0
1,1,14.0,0,0,1,1,8.0,0,8.0,9.0
0,0,14.0,1,1,1,1,7.0,1,9.0,5.0
1,1,14.0,0,0,1,1,5.0,0,8.0,10.0
0,1,17.0,0,0,1,1,8.0,1,9.0,10.0
0,1,16.0,0,0,0,0,5.0,0,8.0,8.0
1,1,13.0,0,0,1,1,8.0,0,8.0,10.0
1,1,15.0,0,1,1,1,7.0,1,9.0,6.0
0,1,15.0,0,1,1,0,11.0,1,12.0,10.0
1,0,18.0,1,0,0,1,5.0,1,7.0,5.0
1,0,13.0,0,0,1,1,8.0,1,5.0,6.0
1,1,13.0,0,0,1,1,5.0,1,6.0,10.0
0,1,17.0,0,0,0,0,7.0,1,12.0,10.0
1,1,13.0,0,0,0,1,5.0,1,5.0,8.0
1,1,20.0,0,0,0,1,6.0,1,5.0,9.0
1,0,13.0,0,0,0,1,9.0,0,4.0,7.0
1,1,15.0,0,0,0,1,8.0,0,9.0,5.0
0,0,16.0,0,0,1,1,11.0,0,9.0,9.0
1,1,17.0,0,0,1,1,6.0,1,10.0,7.0
1,1,16.0,0,0,1,1,6.0,1,7.0,9.0
0,0,14.0,0,0,1,0,10.0,1,8.0,9.0
0,1,17.0,1,0,0,1,5.0,1,6.0,7.0
1,1,13.0,0,0,1,1,4.0,1,9.0,11.0
0,1,14.0,0,0,1,1,9.0,1,9.0,8.0
1,1,16.0,0,0,0,1,9.0,0,7.0,7.0
0,0,18.0,1,0,0,0,8.0,0,4.0,8.0
0,1,15.0,1,0,0,1,7.0,0,3.0,6.0
0,1,13.0,1,1,1,1,11.0,0,6.0,10.0
0,1,17.0,0,1,1,1,9.0,0,9.0,7.0
1,1,13.0,0,0,1,0,10.0,1,8.0,7.0
1,1,19.0,1,0,0,1,6.0,1,4.0,6.0
1,0,13.0,0,0,1,1,6.0,0,7.0,5.0
0,0,16.0,1,0,0,1,5.0,0,10.0,9.0
1,0,17.0,0,0,0,1,7.0,1,8.0,9.0
1,1,17.0,0,0,1,1,10.0,0,8.0,9.0
0,1,15.0,0,0,0,1,12.0,0,8.0,6.0
1,1,15.0,0,0,1,1,3.0,0,12.0,7.0
0,1,13.0,1,1,1,1,10.0,1,10.0,11.0
1,1,13.0,0,1,1,0,5.0,1,9.0,8.0
1,1,16.0,0,0,1,1,7.0,1,8.0,8.0
1,1,16.0,0,0,1,1,4.0,1,8.0,8.0
1,0,13.0,1,1,0,1,6.0,0,5.0,5.0
0,0,16.0,1,1,1,1,8.0,0,11.0,7.0
1,1,16.0,0,0,1,1,8.0,1,8.0,11.0
1,1,19.0,0,0,0,1,9.0,0,7.0,8.0
1,0,14.0,0,0,0,1,8.0,0,9.0,7.0
1,1,14.0,0,0,1,1,8.0,1,6.0,8.0
0,1,13.0,0,0,0,0,9.0,0,5.0,11.0
0,1,13.0,0,0,1,0,6.0,1,8.0,11.0
0,0,16.0,1,1,1,1,12.0,1,9.0,9.0
0,1,14.0,0,0,0,1,9.0,0,10.0,6.0
1,1,17.0,1,0,0,1,7.0,0,8.0,6.0
1,1,14.0,0,0,1,1,8.0,1,10.0,9.0
0,1,18.0,1,1,1,0,9.0,1,8.0,10.0
1,1,16.0,1,0,0,1,5.0,1,8.0,7.0
1,1,16.0,1,0,0,0,8.0,0,8.0,8.0
1,0,13.0,0,1,1,1,4.0,1,11.0,6.0
0,1,16.0,1,0,0,1,6.0,1,6.0,10.0
1,1,15.0,1,0,0,0,8.0,0,7.0,5.0
1,0,16.0,1,0,1,1,7.0,0,8.0,9.0
0,0,14.0,1,1,1,1,9.0,0,8.0,7.0
1,0,13.0,1,1,0,1,3.0,0,7.0,5.0
1,1,16.0,0,0,0,1,5.0,0,8.0,7.0
1,1,15.0,1,0,0,1,8.0,1,6.0,6.0
1,1,15.0,0,0,1,0,7.0,1,10.0,11.0
1,1,17.0,0,0,1,1,7.0,1,8.0,9.0
1,0,13.0,0,0,1,1,8.0,0,8.0,8.0
1,1,13.0,0,0,0,0,6.0,0,10.0,9.0
1,1,16.0,0,0,0,1,3.0,0,7.0,10.0
1,1,16.0,0,0,1,1,8.0,1,4.0,7.0
0,1,14.0,0,0,0,1,6.0,0,12.0,8.0
1,1,15.0,0,0,0,0,7.0,1,8.0,6.0
1,0,13.0,0,0,0,1,7.0,0,7.0,5.0
1,1,13.0,1,0,0,1,8.0,0,10.0,3.0
1,1,13.0,0,0,1,0,6.0,1,8.0,7.0
1,1,15.0,0,0,1,0,5.0,1,6.0,9.0
1,0,18.0,0,0,1,1,8.0,0,7.0,10.0
0,1,14.0,1,0,0,1,9.0,1,9.0,8.0
1,0,17.0,0,0,1,1,8.0,1,7.0,9.0
0,1,14.0,1,0,0,1,9.0,0,10.0,7.0
1,0,15.0,0,0,1,1,4.0,1,11.0,9.0
0,1,17.0,1,1,1,1,6.0,0,10.0,7.0
0,1,15.0,1,0,0,1,7.0,1,6.0,7.0
0,1,14.0,0,0,0,0,4.0,0,7.0,7.0
0,1,13.0,0,0,0,1,10.0,0,4.0,10.0
0,1,15.0,0,0,1,0,11.0,1,11.0,7.0
1,1,17.0,0,0,1,1,3.0,1,8.0,5.0
1,1,13.0,0,0,1,0,5.0,0,7.0,11.0
1,1,17.0,0,0,1,0,9.0,1,9.0,10.0
1,1,16.0,0,1,1,1,11.0,1,5.0,9.0
1,0,13.0,0,0,1,0,9.0,1,7.0,11.0
1,1,15.0,0,0,1,1,6.0,1,6.0,7.0
0,1,15.0,0,0,0,1,10.0,0,7.0,4.0
0,1,13.0,0,0,0,1,8.0,1,7.0,10.0
1,0,14.0,0,0,1,0,9.0,1,7.0,10.0
1,0,13.0,0,0,1,1,7.0,1,8.0,11.0
1,0,13.0,0,0,0,1,9.0,0,4.0,12.0
0,1,15.0,1,0,0,1,6.0,0,5.0,10.0
0,1,17.0,0,0,1,1,5.0,0,9.0,9.0
0,1,18.0,1,1,0,1,9.0,0,8.0,7.0
0,1,13.0,0,0,1,1,6.0,1,9.0,12.0
1,1,19.0,0,0,0,0,7.0,1,3.0,8.0
1,1,18.0,0,0,0,0,4.0,0,12.0,9.0
1,1,18.0,0,0,0,1,6.0,1,9.0,11.0
0,1,13.0,0,0,1,1,5.0,1,12.0,7.0
1,0,14.0,0,0,0,1,8.0,0,8.0,5.0
0,1,13.0,0,0,1,1,6.0,1,12.0,12.0
1,1,15.0,0,0,0,1,4.0,0,6.0,7.0
1,0,14.0,1,0,0,1,8.0,0,10.0,10.0
1,1,15.0,0,0,1,1,6.0,1,6.0,8.0
1,0,13.0,0,0,1,1,8.0,1,10.0,6.0
1,1,16.0,1,0,0,1,8.0,1,3.0,11.0
0,1,16.0,0,0,1,1,7.0,1,9.0,9.0
1,1,13.0,1,1,0,1,6.0,1,9.0,11.0
1,1,15.0,0,0,1,1,6.0,1,9.0,9.0
1,0,16.0,0,1,1,1,8.0,0,10.0,10.0
1,1,19.0,0,0,0,1,6.0,0,6.0,4.0
0,1,15.0,0,0,1,1,6.0,1,8.0,8.0
1,0,13.0,0,0,1,0,8.0,1,12.0,8.0
0,0,14.0,1,0,1,1,7.0,1,9.0,11.0
1,1,15.0,0,0,1,0,7.0,0,10.0,7.0
1,1,15.0,0,0,0,0,7.0,0,5.0,8.0
1,1,13.0,0,0,0,1,6.0,1,6.0,8.0
1,1,14.0,0,0,1,1,8.0,1,5.0,12.0
0,0,14.0,1,1,1,1,10.0,1,10.0,10.0
1,1,14.0,0,0,0,1,2.0,0,11.0,6.0
0,1,19.0,0,0,1,1,9.0,0,10.0,5.0
1,1,13.0,0,0,1,0,8.0,0,5.0,7.0
1,1,18.0,0,0,1,0,8.0,1,7.0,11.0
1,1,17.0,0,0,0,1,7.0,0,7.0,7.0
1,0,16.0,1,1,0,1,7.0,0,4.0,8.0
1,1,15.0,0,0,1,1,4.0,1,10.0,8.0
0,0,16.0,1,0,1,1,4.0,0,7.0,10.0
1,1,14.0,1,0,0,1,4.0,0,5.0,4.0
0,1,14.0,1,0,0,1,4.0,1,5.0,6.0
1,0,14.0,1,1,1,1,11.0,1,7.0,8.0
1,1,16.0,0,0,1,1,8.0,1,9.0,7.0
1,1,15.0,0,0,1,1,6.0,1,7.0,8.0
1,1,15.0,0,0,1,1,8.0,1,6.0,9.0
1,1,18.0,0,0,0,1,5.0,1,7.0,8.0
1,1,14.0,0,0,0,1,7.0,1,3.0,8.0
0,0,16.0,0,0,1,1,5.0,1,9.0,10.0
1,1,14.0,0,0,1,0,6.0,1,8.0,6.0
1,0,13.0,0,0,1,1,5.0,1,10.0,11.0
0,1,13.0,0,0,0,1,8.0,0,5.0,8.0
1,0,14.0,1,0,1,1,2.0,1,9.0,6.0
0,1,16.0,1,1,1,1,9.0,1,7.0,12.0
1,1,16.0,1,0,1,1,3.0,1,9.0,9.0
0,1,15.0,1,0,0,0,9.0,1,10.0,10.0
1,1,16.0,1,0,1,1,10.0,1,8.0,6.0
1,1,15.0,0,0,0,1,4.0,0,7.0,9.0
1,0,14.0,1,0,1,1,5.0,1,9.0,8.0
1,1,17.0,0,0,0,1,6.0,0,4.0,6.0
1,0,17.0,0,0,1,1,9.0,0,7.0,5.0
1,1,17.0,0,0,1,1,9.0,1,7.0,5.0
1,1,14.0,0,0,0,1,5.0,1,6.0,6.0
1,1,16.0,1,0,0,1,5.0,0,8.0,6.0
0,1,13.0,0,0,0,1,5.0,0,8.0,4.0
1,1,15.0,0,0,0,1,7.0,1,5.0,8.0
1,1,16.0,0,0,1,1,9.0,0,7.0,5.0
1,1,15.0,0,0,0,1,4.0,0,9.0,7.0
1,1,15.0,0,0,1,1,8.0,1,7.0,7.0
1,1,18.0,0,1,0,1,3.0,0,5.0,6.0
1,1,15.0,0,0,0,1,5.0,0,9.0,4.0
1,1,15.0,0,0,1,0,6.0,1,12.0,6.0
1,1,15.0,0,0,1,1,6.0,1,9.0,8.0
1,1,17.0,0,0,0,1,3.0,0,6.0,3.0
0,0,14.0,0,0,1,1,9.0,0,12.0,6.0
1,1,13.0,0,0,1,0,5.0,1,8.0,7.0
1,0,15.0,0,0,1,1,9.0,0,8.0,4.0
0,1,18.0,0,0,0,1,9.0,0,8.0,8.0
1,1,14.0,0,0,0,1,10.0,0,6.0,3.0
1,0,16.0,0,0,1,1,9.0,0,9.0,9.0
1,1,14.0,0,0,0,1,8.0,0,7.0,5.0
1,1,14.0,0,0,0,0,6.0,0,9.0,7.0
1,1,14.0,0,0,1,1,4.0,1,8.0,8.0
1,1,13.0,0,0,1,1,8.0,0,9.0,9.0
0,0,15.0,1,0,1,1,5.0,0,7.0,8.0
0,0,16.0,0,0,1,1,9.0,1,12.0,7.0
0,1,18.0,0,0,1,0,3.0,1,9.0,9.0
1,0,16.0,1,1,0,1,5.0,0,7.0,8.0
0,1,13.0,0,0,1,1,8.0,1,7.0,12.0
1,1,16.0,0,0,0,0,5.0,0,9.0,10.0
0,1,16.0,0,0,1,1,8.0,1,5.0,5.0
0,1,18.0,0,0,0,1,6.0,0,9.0,5.0
0,1,19.0,1,0,1,1,4.0,1,8.0,8.0
0,1,17.0,1,1,1,0,5.0,0,10.0,9.0
1,1,14.0,0,0,0,1,8.0,0,7.0,5.0
1,1,15.0,0,0,0,1,5.0,0,9.0,8.0
1,1,17.0,0,0,0,0,5.0,1,9.0,6.0
1,1,14.0,0,0,0,0,9.0,1,7.0,2.0
1,0,15.0,0,0,0,0,8.0,0,6.0,8.0
1,1,16.0,1,0,0,1,5.0,0,5.0,4.0
0,1,17.0,0,0,1,0,5.0,1,11.0,11.0
1,0,15.0,1,0,1,1,6.0,1,9.0,7.0
1,1,13.0,0,0,0,1,5.0,0,5.0,5.0
1,1,16.0,0,0,1,0,8.0,1,11.0,8.0
1,1,14.0,0,0,1,1,9.0,0,6.0,7.0
1,0,13.0,0,0,1,0,11.0,0,9.0,11.0
0,0,15.0,1,1,1,1,8.0,1,8.0,10.0
1,1,17.0,0,0,0,1,7.0,1,7.0,6.0
1,1,13.0,0,0,0,0,6.0,0,7.0,12.0
1,0,18.0,0,1,1,1,8.0,1,8.0,11.0
1,0,17.0,0,0,1,1,5.0,1,7.0,9.0
0,1,17.0,0,0,1,0,8.0,0,10.0,10.0
0,1,13.0,0,0,0,1,6.0,0,9.0,8.0
0,1,14.0,0,0,1,1,9.0,0,11.0,7.0
1,1,14.0,0,0,1,0,6.0,1,10.0,4.0
1,1,15.0,0,0,0,1,4.0,0,8.0,4.0
1,1,15.0,0,0,1,0,5.0,0,8.0,7.0
0,1,14.0,0,0,1,1,5.0,1,12.0,11.0
1,1,15.0,0,0,0,0,6.0,1,6.0,8.0
1,1,15.0,0,0,1,0,9.0,0,7.0,8.0
0,1,16.0,1,0,1,1,7.0,1,8.0,8.0
1,1,13.0,0,0,0,0,9.0,1,6.0,7.0
1,1,16.0,0,0,1,1,8.0,0,7.0,10.0
1,0,18.0,1,0,1,1,4.0,0,10.0,11.0
1,1,17.0,0,0,1,1,9.0,0,9.0,7.0
0,1,13.0,0,1,0,1,7.0,0,11.0,8.0
1,1,17.0,0,0,0,1,8.0,0,7.0,4.0
1,1,20.0,0,0,0,1,5.0,1,8.0,5.0
1,1,15.0,0,1,0,1,8.0,0,6.0,10.0
0,1,16.0,1,0,1,1,9.0,0,9.0,9.0
0,1,20.0,0,0,0,1,2.0,0,4.0,9.0
0,1,17.0,0,0,1,1,9.0,1,11.0,7.0
1,1,18.0,0,0,0,1,7.0,0,5.0,7.0
0,1,13.0,0,0,1,1,9.0,0,10.0,6.0
0,0,15.0,1,0,0,0,10.0,1,10.0,10.0
0,1,16.0,0,0,1,0,6.0,0,10.0,10.0
1,1,16.0,0,0,1,1,7.0,1,8.0,6.0
1,1,17.0,1,0,0,1,6.0,0,3.0,7.0
1,1,15.0,0,0,1,1,6.0,1,9.0,8.0
0,1,13.0,1,0,0,0,9.0,0,11.0,7.0
1,1,17.0,0,0,0,1,6.0,0,6.0,4.0
1,1,16.0,0,0,0,1,6.0,1,7.0,6.0
1,1,13.0,0,0,1,1,9.0,0,9.0,7.0
0,0,17.0,0,0,0,1,6.0,1,12.0,7.0
0,1,16.0,0,0,1,0,9.0,0,9.0,10.0
1,0,16.0,0,0,1,1,8.0,1,11.0,10.0
1,1,14.0,0,1,0,1,6.0,1,7.0,6.0
0,0,18.0,0,0,1,1,11.0,0,11.0,10.0
0,1,16.0,0,1,1,0,8.0,1,7.0,6.0
1,1,13.0,0,0,1,1,7.0,1,4.0,3.0
1,1,13.0,0,0,1,0,9.0,1,10.0,10.0
1,1,13.0,0,0,0,0,9.0,1,8.0,6.0
1,1,13.0,0,0,0,0,8.0,0,6.0,5.0
1,1,14.0,0,0,0,1,6.0,0,5.0,5.0
1,1,15.0,0,0,0,1,10.0,0,6.0,8.0
1,0,13.0,0,0,1,1,6.0,1,7.0,10.0
1,1,14.0,0,0,0,1,4.0,1,3.0,6.0
1,1,18.0,0,0,0,0,6.0,0,7.0,10.0
1,1,15.0,0,0,0,0,4.0,0,9.0,7.0
0,1,18.0,1,0,1,1,5.0,1,5.0,8.0
0,0,15.0,1,1,1,1,6.0,1,12.0,7.0
1,0,15.0,0,0,1,1,8.0,1,11.0,9.0
1,1,13.0,0,0,1,1,7.0,1,10.0,10.0
1,0,16.0,0,0,1,1,5.0,1,7.0,9.0
1,1,17.0,0,0,1,1,6.0,1,10.0,9.0
1,1,14.0,0,0,1,0,6.0,1,8.0,8.0
1,1,14.0,0,0,1,1,7.0,1,9.0,4.0
1,1,17.0,0,0,1,0,4.0,0,6.0,9.0
1,1,14.0,1,1,1,1,7.0,0,9.0,8.0
0,0,13.0,1,0,0,0,5.0,1,9.0,8.0
0,1,16.0,0,0,1,1,5.0,1,7.0,9.0
0,0,14.0,0,0,1,0,5.0,1,9.0,11.0
1,0,16.0,0,0,1,0,8.0,1,7.0,8.0
0,1,13.0,1,0,0,0,3.0,1,8.0,8.0
0,0,18.0,0,0,1,1,12.0,0,12.0,10.0
1,0,16.0,0,0,0,1,6.0,0,3.0,11.0
1,1,15.0,0,0,0,1,7.0,0,10.0,5.0
1,0,13.0,0,0,0,1,10.0,0,5.0,8.0
0,1,13.0,0,1,1,1,6.0,1,8.0,10.0
1,1,13.0,0,0,1,1,9.0,0,5.0,5.0
1,1,13.0,0,0,0,1,7.0,0,6.0,9.0
1,1,18.0,1,0,1,1,4.0,1,4.0,7.0
1,0,16.0,0,0,0,1,5.0,0,7.0,7.0
0,1,17.0,0,0,1,1,4.0,1,12.0,8.0
1,0,18.0,0,0,1,0,8.0,1,10.0,9.0
1,1,18.0,0,0,1,1,5.0,0,8.0,8.0
1,1,16.0,0,0,0,0,4.0,1,8.0,8.0
1,1,14.0,0,0,1,1,11.0,1,8.0,5.0
1,1,16.0,1,0,0,1,5.0,1,6.0,4.0
1,0,15.0,1,1,0,1,10.0,1,7.0,7.0
0,1,14.0,1,0,1,1,5.0,1,9.0,7.0
1,1,14.0,1,0,0,0,7.0,1,9.0,11.0
0,1,17.0,1,0,0,1,7.0,0,9.0,7.0
0,1,18.0,1,0,0,1,5.0,0,7.0,6.0
1,0,14.0,1,1,0,1,8.0,1,10.0,6.0
1,1,14.0,0,0,1,1,5.0,1,5.0,7.0
1,1,16.0,0,0,1,1,4.0,1,7.0,12.0
0,1,14.0,0,0,1,1,9.0,1,7.0,9.0
1,1,16.0,0,0,1,0,11.0,1,10.0,11.0
0,0,18.0,0,0,1,0,10.0,1,12.0,10.0
1,1,14.0,1,0,0,1,7.0,1,3.0,10.0
0,0,15.0,1,0,1,1,6.0,1,11.0,11.0
1,1,19.0,1,0,0,1,1.0,1,5.0,4.0
1,1,14.0,0,0,1,1,6.0,0,8.0,12.0
0,1,15.0,1,0,1,0,5.0,1,8.0,10.0
1,1,13.0,0,0,0,1,2.0,0,5.0,7.0
1,1,14.0,0,0,1,1,9.0,0,8.0,8.0
1,1,13.0,0,0,1,0,8.0,1,8.0,6.0
0,1,21.0,0,0,0,1,8.0,0,9.0,6.0
1,1,16.0,0,0,0,0,8.0,0,6.0,6.0
0,1,15.0,0,0,1,0,9.0,0,7.0,8.0
0,1,13.0,0,0,1,0,10.0,0,10.0,10.0
1,1,13.0,0,0,1,1,7.0,1,6.0,8.0
1,1,15.0,0,0,0,1,8.0,1,8.0,6.0
1,0,15.0,0,0,0,0,11.0,1,9.0,10.0
0,1,16.0,0,0,0,1,6.0,0,5.0,7.0
0,1,16.0,0,1,1,0,7.0,1,9.0,10.0
1,1,17.0,0,0,0,0,6.0,0,7.0,7.0
0,0,15.0,0,0,0,1,7.0,1,11.0,7.0
0,0,16.0,0,1,1,1,10.0,0,12.0,9.0
0,1,14.0,1,1,0,1,5.0,1,6.0,5.0
1,1,13.0,0,0,0,1,3.0,0,5.0,7.0
1,0,14.0,0,0,1,1,8.0,0,8.0,12.0
1,1,17.0,1,0,0,1,8.0,0,2.0,8.0
1,1,16.0,0,0,0,1,9.0,1,6.0,9.0
0,0,15.0,1,1,1,0,11.0,1,12.0,6.0
0,0,16.0,0,1,1,0,11.0,0,10.0,12.0
1,1,18.0,0,0,1,1,8.0,1,12.0,8.0
1,0,13.0,0,0,1,1,5.0,0,5.0,8.0
1,0,13.0,1,1,0,1,8.0,0,7.0,7.0
0,1,15.0,1,0,0,1,7.0,1,2.0,4.0
1,1,16.0,1,0,0,1,8.0,0,6.0,9.0
1,1,15.0,0,0,0,1,4.0,1,8.0,6.0
0,1,17.0,1,0,0,1,6.0,1,12.0,7.0
1,1,13.0,0,0,0,1,4.0,1,5.0,5.0
0,1,13.0,1,0,0,1,7.0,1,5.0,9.0
1,1,14.0,0,0,1,0,7.0,0,10.0,8.0
1,1,20.0,0,0,0,1,4.0,1,8.0,7.0
1,1,15.0,0,0,1,1,5.0,1,9.0,6.0
1,1,13.0,1,0,1,0,7.0,1,7.0,6.0
1,0,14.0,1,0,1,1,10.0,1,7.0,10.0
1,1,16.0,0,0,1,0,6.0,1,7.0,9.0
1,1,17.0,0,0,0,0,6.0,0,8.0,3.0
0,1,16.0,0,0,1,1,7.0,1,9.0,10.0
0,1,15.0,0,0,1,0,12.0,1,9.0,8.0
0,1,16.0,0,1,1,1,10.0,1,9.0,10.0
1,1,17.0,0,0,1,1,7.0,1,3.0,8.0
1,0,14.0,0,0,1,0,7.0,0,9.0,12.0
0,0,15.0,0,0,1,1,5.0,1,5.0,6.0
0,1,15.0,0,0,1,0,7.0,1,11.0,11.0
1,1,13.0,0,0,1,1,12.0,0,5.0,9.0
0,0,13.0,1,0,1,1,6.0,1,8.0,10.0
0,1,13.0,0,0,1,1,6.0,1,9.0,10.0
1,1,15.0,0,0,1,1,8.0,1,10.0,9.0
0,1,14.0,0,0,1,1,4.0,0,7.0,3.0
1,1,14.0,0,0,0,1,10.0,1,7.0,5.0
1,1,15.0,0,0,0,0,8.0,0,9.0,7.0
1,1,16.0,0,0,1,1,8.0,0,10.0,7.0
1,1,14.0,0,0,1,1,5.0,1,8.0,8.0
1,1,17.0,0,1,0,1,5.0,1,7.0,7.0
1,1,13.0,0,0,1,1,7.0,1,8.0,8.0
0,1,15.0,1,0,0,1,8.0,1,12.0,8.0
1,1,15.0,0,0,1,0,6.0,1,8.0,12.0
1,1,17.0,0,0,0,1,6.0,0,5.0,8.0
1,1,14.0,1,0,1,1,8.0,0,10.0,9.0
0,1,17.0,0,0,0,0,11.0,1,10.0,8.0
1,1,15.0,0,0,0,0,8.0,1,11.0,8.0
1,1,15.0,1,0,1,1,8.0,0,4.0,12.0
1,1,15.0,0,0,0,1,7.0,0,6.0,5.0
0,1,16.0,0,1,0,1,6.0,0,8.0,6.0
0,1,17.0,0,0,1,1,6.0,1,8.0,11.0
1,1,14.0,0,0,0,0,6.0,0,8.0,8.0
1,1,13.0,0,0,1,1,7.0,1,1.0,4.0
1,1,13.0,0,0,0,1,8.0,0,6.0,5.0
1,0,15.0,0,0,0,1,9.0,0,7.0,7.0
0,1,15.0,1,0,1,1,6.0,0,9.0,8.0
1,1,15.0,0,0,0,1,6.0,0,5.0,5.0
0,0,14.0,0,0,1,1,8.0,1,6.0,10.0
1,1,17.0,0,0,1,1,9.0,0,9.0,5.0
0,1,15.0,1,0,0,1,4.0,1,8.0,4.0
1,1,13.0,0,0,0,0,3.0,0,5.0,8.0
1,0,15.0,0,0,0,1,7.0,1,10.0,9.0
1,1,16.0,0,1,1,1,9.0,0,7.0,7.0
0,0,15.0,0,0,1,0,8.0,0,10.0,9.0
1,1,15.0,0,0,1,1,9.0,0,5.0,6.0
1,1,15.0,0,0,0,1,6.0,1,7.0,6.0
1,1,13.0,0,0,1,0,6.0,1,4.0,11.0
1,1,18.0,0,0,0,1,5.0,0,5.0,7.0
0,1,14.0,0,0,1,1,9.0,0,10.0,9.0
1,1,18.0,0,0,1,1,6.0,1,8.0,7.0
0,1,14.0,0,0,1,1,6.0,1,9.0,7.0
0,1,17.0,0,0,1,1,4.0,0,11.0,8.0
1,1,15.0,0,0,1,0,8.0,1,8.0,5.0
0,1,15.0,1,1,1,1,10.0,0,9.0,10.0
1,1,13.0,0,0,1,1,9.0,0,7.0,9.0
0,1,17.0,1,0,1,1,8.0,1,12.0,11.0
1,1,16.0,0,0,1,1,6.0,0,8.0,7.0
1,1,15.0,0,0,0,1,4.0,0,6.0,9.0
1,1,17.0,0,0,0,1,5.0,1,6.0,5.0
1,1,15.0,0,0,1,1,7.0,0,7.0,10.0
0,1,19.0,1,0,0,1,5.0,1,5.0,9.0
1,1,17.0,0,0,1,0,7.0,1,4.0,7.0
1,1,14.0,0,0,0,1,5.0,1,6.0,5.0
1,0,18.0,1,0,1,1,8.0,1,12.0,8.0
0,1,15.0,1,1,0,0,9.0,0,10.0,8.0
1,1,19.0,0,0,1,1,7.0,1,6.0,6.0
1,0,15.0,1,0,1,1,5.0,0,11.0,10.0
1,1,15.0,0,0,1,0,8.0,1,12.0,12.0
0,1,15.0,1,0,0,0,9.0,0,7.0,10.0
1,1,16.0,0,0,1,1,7.0,1,6.0,6.0
1,1,18.0,1,0,0,1,7.0,0,3.0,3.0
0,1,16.0,0,0,1,0,9.0,1,8.0,12.0
1,1,15.0,1,0,1,0,10.0,1,10.0,10.0
0,0,14.0,1,1,0,1,8.0,0,4.0,8.0
0,0,17.0,0,0,1,0,7.0,0,12.0,12.0
1,1,14.0,0,0,1,1,2.0,0,7.0,3.0
0,1,13.0,0,0,1,1,10.0,0,7.0,5.0
1,0,13.0,1,0,1,1,6.0,1,7.0,7.0
1,1,14.0,0,0,1,1,3.0,1,9.0,9.0
1,1,15.0,0,0,0,0,3.0,0,8.0,12.0
1,0,17.0,0,0,0,1,8.0,1,5.0,6.0
1,1,14.0,0,0,0,0,7.0,1,6.0,9.0
1,1,17.0,0,0,1,1,8.0,1,8.0,5.0
0,0,13.0,1,1,1,0,11.0,1,11.0,4.0
0,0,20.0,1,1,0,0,12.0,0,12.0,9.0
1,1,13.0,0,0,1,1,5.0,1,9.0,10.0
1,1,15.0,0,0,1,1,7.0,1,9.0,7.0
1,1,15.0,0,0,1,1,6.0,1,9.0,6.0
1,0,13.0,1,0,1,1,9.0,1,7.0,7.0
1,0,16.0,1,0,0,1,11.0,1,4.0,4.0
1,1,17.0,0,0,1,1,10.0,0,8.0,6.0
1,1,15.0,0,0,1,1,12.0,0,10.0,11.0
0,1,17.0,0,0,1,1,7.0,1,10.0,9.0
1,0,15.0,1,1,1,0,7.0,1,6.0,12.0
0,1,13.0,1,0,1,1,6.0,1,9.0,9.0
0,0,15.0,1,1,1,1,12.0,1,12.0,9.0
1,1,14.0,0,0,0,1,8.0,0,7.0,6.0
0,1,16.0,0,0,1,0,9.0,1,8.0,9.0
1,1,14.0,0,0,1,1,8.0,0,9.0,10.0
0,1,15.0,0,0,1,1,6.0,0,10.0,5.0
1,1,13.0,0,0,0,1,9.0,0,10.0,5.0
1,0,17.0,1,0,0,1,9.0,0,8.0,8.0
1,1,14.0,0,0,0,1,4.0,0,6.0,7.0
1,0,13.0,0,0,1,1,7.0,1,8.0,8.0
1,0,20.0,1,1,1,1,7.0,1,4.0,9.0
0,1,13.0,1,0,0,1,7.0,0,6.0,4.0
0,0,16.0,1,0,1,1,11.0,1,9.0,9.0
0,1,13.0,1,0,0,0,8.0,1,6.0,8.0
1,1,16.0,0,0,0,1,8.0,0,9.0,5.0
0,0,15.0,0,0,1,1,11.0,0,9.0,8.0
1,0,14.0,1,0,0,1,8.0,0,7.0,8.0
0,1,13.0,1,0,0,1,11.0,0,9.0,6.0
0,1,13.0,1,0,1,1,9.0,0,8.0,7.0
1,1,13.0,0,0,1,1,7.0,1,9.0,10.0
0,0,13.0,1,0,0,1,5.0,0,9.0,7.0
1,1,13.0,0,0,0,0,7.0,0,5.0,5.0
1,1,18.0,0,0,1,1,10.0,0,10.0,8.0
1,1,16.0,0,0,1,1,8.0,1,6.0,4.0
1,1,18.0,0,0,0,1,8.0,0,9.0,8.0
0,1,13.0,0,0,1,1,6.0,0,10.0,9.0
1,1,14.0,0,0,1,1,9.0,0,8.0,10.0
1,1,13.0,0,0,1,1,7.0,1,4.0,6.0
0,1,13.0,0,0,1,0,10.0,1,9.0,11.0
1,1,14.0,0,0,1,1,5.0,1,5.0,6.0
0,1,14.0,1,1,0,1,5.0,1,8.0,6.0
1,1,19.0,0,0,1,0,6.0,0,11.0,8.0
1,1,15.0,0,0,1,1,8.0,1,6.0,6.0
1,0,14.0,0,0,1,1,9.0,0,8.0,8.0
0,1,16.0,0,0,1,1,9.0,0,9.0,8.0
1,1,15.0,0,0,1,1,7.0,1,9.0,11.0
0,0,13.0,1,0,1,0,6.0,1,8.0,11.0
1,1,14.0,0,0,1,1,4.0,1,6.0,11.0
1,1,18.0,0,0,0,0,8.0,0,7.0,10.0
1,1,18.0,0,0,0,0,4.0,1,10.0,3.0
0,0,16.0,1,0,1,0,11.0,1,8.0,7.0
1,0,17.0,0,0,1,0,7.0,1,9.0,8.0
1,1,18.0,0,0,1,1,9.0,1,7.0,8.0
1,1,14.0,0,0,0,1,6.0,1,5.0,10.0
1,0,15.0,0,0,1,0,9.0,1,9.0,9.0
1,1,15.0,1,1,0,1,7.0,0,8.0,7.0
1,1,13.0,0,0,1,1,5.0,1,8.0,6.0
1,1,16.0,0,0,0,1,5.0,0,7.0,11.0
1,1,13.0,0,0,1,0,10.0,1,11.0,10.0
1,1,15.0,0,0,0,1,7.0,1,10.0,6.0
0,0,14.0,1,1,1,1,7.0,1,6.0,9.0
1,1,16.0,0,0,1,1,8.0,1,9.0,8.0
1,1,13.0,0,0,1,0,9.0,1,10.0,11.0
1,1,14.0,0,0,1,0,7.0,0,9.0,9.0
0,1,19.0,0,0,1,1,9.0,1,10.0,9.0
0,1,15.0,1,0,0,1,6.0,0,8.0,4.0
0,1,15.0,0,0,1,1,5.0,1,11.0,6.0
1,1,14.0,0,0,1,1,7.0,1,9.0,7.0
1,1,15.0,0,0,1,1,7.0,0,6.0,5.0
0,0,16.0,1,1,0,1,8.0,1,9.0,12.0
1,1,14.0,0,0,0,1,12.0,0,6.0,9.0
1,0,15.0,0,0,1,1,6.0,1,11.0,8.0
1,1,15.0,0,1,1,1,8.0,1,11.0,9.0
0,1,16.0,0,0,1,0,8.0,1,8.0,6.0
0,1,17.0,0,0,0,1,12.0,0,9.0,8.0
0,1,14.0,0,0,1,1,10.0,0,12.0,10.0
1,1,17.0,0,0,1,1,7.0,1,8.0,6.0
1,1,17.0,0,0,0,1,8.0,0,4.0,9.0
1,1,16.0,0,0,0,0,8.0,1,6.0,9.0
1,0,17.0,1,1,0,1,4.0,0,7.0,7.0
1,1,15.0,0,0,0,1,8.0,1,5.0,11.0
1,1,15.0,0,0,0,1,3.0,1,4.0,4.0
1,0,15.0,0,0,1,1,5.0,1,5.0,7.0
1,1,14.0,0,0,0,0,9.0,0,11.0,8.0
0,1,15.0,0,0,0,1,10.0,0,7.0,5.0
1,1,13.0,0,0,1,1,7.0,1,7.0,7.0
1,1,16.0,0,0,0,1,6.0,0,7.0,11.0
1,0,14.0,1,0,0,1,8.0,1,12.0,5.0
0,0,13.0,1,1,1,1,8.0,1,7.0,9.0
1,1,17.0,0,0,0,0,8.0,0,10.0,6.0
0,1,13.0,1,1,1,1,9.0,1,7.0,8.0
1,1,17.0,0,0,1,1,7.0,1,8.0,7.0
1,1,14.0,0,0,1,1,6.0,1,10.0,8.0
1,0,17.0,0,0,1,1,9.0,0,9.0,8.0
1,0,19.0,0,0,1,1,10.0,0,11.0,9.0
0,1,13.0,0,0,1,1,9.0,1,11.0,8.0
1,1,14.0,0,1,0,1,4.0,1,7.0,8.0
1,0,17.0,1,1,0,1,8.0,0,9.0,8.0
0,1,16.0,0,0,0,1,6.0,0,10.0,3.0
0,1,16.0,0,0,0,1,4.0,1,8.0,10.0
1,1,17.0,1,0,0,1,7.0,0,9.0,5.0
0,1,13.0,1,0,0,1,11.0,1,8.0,7.0
1,0,13.0,0,0,1,0,10.0,1,8.0,9.0
1,0,14.0,0,0,1,1,6.0,0,10.0,8.0
1,1,18.0,0,0,1,0,8.0,1,8.0,9.0
1,1,13.0,0,1,1,1,8.0,1,9.0,12.0
1,1,13.0,0,0,1,1,5.0,1,4.0,7.0
1,1,17.0,0,0,1,0,7.0,0,6.0,7.0
0,1,14.0,0,0,1,1,8.0,1,7.0,4.0
0,0,14.0,1,0,1,1,5.0,1,4.0,7.0
1,1,13.0,0,0,0,1,7.0,0,4.0,6.0
1,1,16.0,0,0,1,1,7.0,1,10.0,9.0
0,1,16.0,0,0,0,1,5.0,0,8.0,9.0
1,1,14.0,0,0,1,1,5.0,1,6.0,7.0
1,1,13.0,1,0,0,1,5.0,1,2.0,7.0
0,1,13.0,0,0,1,1,6.0,1,8.0,6.0
1,1,16.0,0,0,1,1,5.0,1,9.0,7.0
1,0,20.0,0,0,1,1,6.0,0,9.0,8.0
0,1,16.0,0,1,1,1,9.0,0,6.0,8.0
1,1,16.0,0,0,1,1,7.0,1,7.0,6.0
1,0,15.0,0,0,0,1,5.0,0,10.0,6.0
1,1,16.0,0,0,1,1,3.0,0,8.0,9.0
0,1,15.0,0,0,1,1,7.0,1,10.0,7.0
1,1,16.0,1,0,0,1,8.0,1,6.0,8.0
0,0,13.0,0,0,1,1,5.0,0,9.0,5.0
0,1,13.0,0,0,1,1,6.0,1,10.0,5.0
1,1,15.0,0,0,0,1,5.0,1,4.0,4.0
1,1,15.0,0,0,1,1,2.0,1,10.0,9.0
0,0,13.0,0,0,0,1,8.0,1,10.0,12.0
0,1,14.0,0,0,1,1,10.0,0,9.0,8.0
1,1,14.0,0,1,0,1,3.0,0,9.0,8.0
1,1,16.0,1,0,0,1,6.0,1,6.0,7.0
1,1,15.0,0,0,1,0,6.0,0,7.0,8.0
0,1,15.0,1,0,0,1,8.0,0,9.0,8.0
0,1,13.0,0,0,0,1,7.0,0,11.0,10.0
1,1,16.0,1,0,0,1,8.0,1,4.0,10.0
0,1,16.0,1,0,0,1,6.0,1,7.0,10.0
1,1,19.0,0,0,1,0,5.0,0,6.0,7.0
0,0,16.0,1,0,0,1,11.0,1,5.0,6.0
1,0,17.0,1,0,0,1,6.0,1,5.0,7.0
1,1,17.0,0,0,1,1,6.0,1,6.0,5.0
1,1,13.0,1,0,0,1,10.0,1,8.0,9.0
0,1,15.0,0,0,1,0,10.0,1,11.0,12.0
1,1,15.0,0,0,1,1,8.0,0,10.0,8.0
0,1,14.0,0,0,1,1,6.0,0,9.0,8.0
0,0,17.0,1,1,0,1,9.0,0,7.0,10.0
0,1,18.0,1,0,0,0,10.0,1,11.0,8.0
1,0,13.0,0,0,1,1,5.0,1,6.0,10.0
1,1,15.0,0,0,1,1,9.0,0,12.0,6.0
1,1,16.0,0,0,1,1,6.0,1,8.0,6.0
1,1,13.0,0,0,1,0,7.0,0,10.0,8.0
1,1,13.0,0,0,0,1,7.0,1,5.0,10.0
1,0,15.0,1,1,0,1,6.0,0,7.0,6.0
1,1,13.0,0,0,0,1,5.0,0,7.0,6.0
1,1,13.0,0,0,1,1,6.0,1,6.0,7.0
1,0,17.0,1,1,0,1,9.0,0,9.0,10.0
1,0,18.0,0,0,1,0,8.0,1,8.0,10.0
1,1,16.0,0,0,1,0,9.0,0,9.0,9.0
1,0,16.0,0,0,1,1,7.0,0,10.0,8.0
0,1,16.0,0,0,1,0,5.0,1,10.0,8.0
0,1,15.0,0,1,1,1,10.0,0,6.0,10.0
1,1,16.0,1,0,0,0,9.0,1,5.0,8.0
0,1,15.0,0,0,1,1,5.0,0,7.0,11.0
0,1,13.0,0,0,1,0,6.0,1,7.0,6.0
1,1,18.0,0,0,1,0,8.0,0,10.0,8.0
1,1,16.0,0,0,0,1,5.0,1,4.0,7.0
0,1,20.0,0,0,1,0,7.0,0,10.0,11.0
0,0,13.0,0,0,1,1,11.0,0,7.0,11.0
1,0,13.0,0,0,1,1,8.0,0,6.0,11.0
1,1,18.0,0,0,0,1,9.0,0,3.0,8.0
1,1,15.0,0,0,1,0,12.0,1,8.0,9.0
1,1,18.0,1,0,0,1,6.0,0,3.0,4.0
1,1,19.0,0,0,0,1,8.0,0,7.0,5.0
0,1,13.0,0,1,0,1,7.0,0,7.0,3.0
1,0,13.0,0,0,1,1,8.0,1,6.0,8.0
1,1,13.0,0,0,1,0,8.0,1,8.0,7.0
1,1,15.0,1,0,0,1,5.0,1,8.0,5.0
0,1,14.0,0,0,1,0,8.0,1,10.0,11.0
0,0,13.0,1,1,1,1,5.0,1,10.0,12.0
1,1,15.0,0,0,1,1,3.0,1,8.0,7.0
0,0,18.0,1,0,1,1,6.0,0,9.0,6.0
1,1,13.0,0,0,0,0,10.0,1,6.0,10.0
1,1,17.0,1,0,0,1,7.0,1,8.0,4.0
1,1,16.0,0,0,1,1,7.0,1,9.0,7.0
0,1,15.0,1,0,0,1,8.0,1,5.0,8.0
1,0,13.0,0,0,0,0,9.0,0,10.0,9.0
1,1,14.0,0,0,0,1,9.0,0,6.0,4.0
1,1,19.0,0,0,1,1,6.0,1,8.0,9.0
1,1,14.0,0,0,1,0,9.0,1,8.0,10.0
1,1,16.0,0,0,0,1,7.0,1,6.0,7.0
0,1,14.0,0,0,0,1,8.0,1,8.0,5.0
1,1,13.0,0,0,1,1,2.0,0,5.0,7.0
1,1,16.0,0,0,0,0,8.0,0,8.0,8.0
1,0,18.0,0,0,1,1,7.0,0,9.0,12.0
1,1,17.0,0,0,0,1,7.0,1,6.0,5.0
0,1,18.0,0,0,1,1,8.0,1,11.0,8.0
0,1,15.0,1,0,0,1,10.0,1,6.0,7.0
1,1,15.0,0,0,0,1,7.0,0,3.0,4.0
0,1,16.0,0,0,0,1,9.0,0,4.0,6.0
1,1,15.0,0,0,0,1,8.0,0,8.0,6.0
1,1,14.0,0,0,1,1,6.0,1,5.0,8.0
0,1,13.0,0,0,1,0,6.0,1,8.0,7.0
1,0,17.0,0,0,0,1,8.0,0,8.0,10.0
1,1,15.0,0,0,1,1,3.0,1,1.0,8.0
0,1,13.0,1,1,0,1,8.0,0,8.0,5.0
1,1,13.0,0,0,1,1,8.0,1,6.0,7.0
1,1,19.0,0,0,1,1,10.0,0,6.0,9.0
1,1,17.0,0,0,1,1,6.0,0,7.0,7.0
1,1,16.0,0,0,0,1,5.0,1,2.0,8.0
0,1,13.0,0,0,0,0,7.0,0,9.0,9.0
0,1,14.0,0,0,1,0,9.0,0,6.0,7.0
1,0,13.0,0,0,1,1,7.0,1,7.0,10.0
1,1,14.0,1,0,0,1,6.0,0,9.0,11.0
1,1,15.0,0,1,1,0,7.0,1,9.0,7.0
1,1,14.0,0,0,0,0,7.0,1,6.0,8.0
0,0,13.0,0,0,1,1,6.0,1,7.0,9.0
0,1,16.0,0,0,0,1,5.0,0,9.0,6.0
1,1,15.0,0,0,0,0,9.0,0,6.0,10.0
1,1,16.0,1,0,0,1,6.0,0,8.0,3.0
0,1,17.0,1,0,0,0,8.0,0,6.0,6.0
1,0,17.0,1,0,1,0,5.0,1,10.0,11.0
0,0,18.0,1,1,1,1,9.0,1,12.0,7.0
0,1,17.0,0,1,0,1,7.0,1,7.0,7.0
1,1,16.0,0,0,1,1,8.0,0,9.0,7.0
1,0,14.0,0,1,1,1,9.0,1,7.0,11.0
1,1,13.0,0,0,0,1,7.0,0,6.0,3.0
1,1,16.0,0,0,1,1,7.0,1,7.0,9.0
0,1,14.0,0,0,0,1,3.0,0,11.0,6.0
1,1,19.0,0,0,0,1,6.0,1,6.0,4.0
0,0,14.0,0,0,0,1,9.0,0,9.0,8.0
0,1,16.0,0,0,0,0,7.0,0,9.0,7.0
0,1,16.0,0,0,0,1,4.0,0,11.0,12.0
0,1,13.0,0,0,1,1,8.0,0,9.0,6.0
1,0,13.0,1,1,0,1,6.0,0,10.0,8.0
1,1,13.0,1,0,0,1,7.0,0,8.0,4.0
1,1,16.0,0,0,1,1,6.0,1,4.0,10.0
1,1,15.0,0,0,1,0,6.0,1,9.0,10.0
1,0,16.0,1,0,1,0,7.0,1,8.0,12.0
1,1,14.0,0,0,0,1,7.0,0,10.0,9.0
1,0,13.0,0,0,1,1,8.0,1,10.0,7.0
1,0,14.0,0,0,1,1,7.0,1,8.0,8.0
1,0,16.0,0,0,1,1,9.0,1,11.0,11.0
0,1,13.0,1,0,1,0,9.0,1,12.0,9.0
0,1,16.0,0,0,1,0,8.0,1,11.0,7.0
0,1,16.0,0,0,1,1,9.0,1,12.0,12.0
1,1,17.0,0,0,1,1,5.0,0,11.0,11.0
1,1,14.0,0,0,0,1,8.0,0,9.0,6.0
1,1,15.0,0,0,0,1,5.0,0,11.0,8.0
0,0,17.0,0,1,1,1,10.0,0,10.0,10.0
1,1,14.0,0,0,0,1,4.0,0,7.0,8.0
0,1,15.0,0,0,1,0,8.0,1,9.0,12.0
1,1,19.0,0,0,1,1,8.0,1,11.0,7.0
0,1,16.0,0,0,1,0,4.0,0,8.0,9.0
0,1,17.0,0,0,1,1,6.0,1,10.0,6.0
1,1,16.0,1,0,0,1,6.0,1,5.0,5.0
1,1,17.0,0,0,0,1,9.0,0,11.0,8.0
1,1,16.0,0,0,0,0,9.0,0,7.0,8.0
1,1,15.0,0,0,1,0,5.0,1,12.0,7.0
1,1,15.0,0,0,0,1,6.0,0,9.0,6.0
0,0,15.0,0,0,1,1,10.0,0,10.0,5.0
1,1,16.0,0,0,0,1,10.0,0,6.0,8.0
0,1,15.0,1,0,1,0,5.0,1,10.0,11.0
0,0,15.0,1,0,1,1,11.0,0,8.0,9.0
0,1,15.0,0,0,1,1,5.0,0,9.0,10.0
1,1,16.0,1,0,0,1,10.0,0,6.0,8.0
0,1,18.0,0,0,1,1,4.0,1,6.0,7.0
1,1,13.0,1,0,0,1,7.0,0,6.0,6.0
1,0,17.0,0,0,1,0,5.0,1,9.0,6.0
0,1,14.0,0,0,1,0,7.0,0,7.0,8.0
1,0,14.0,0,0,1,1,5.0,1,11.0,10.0
1,1,15.0,1,0,0,0,8.0,1,8.0,8.0
1,1,13.0,0,0,0,1,10.0,0,6.0,7.0
1,1,14.0,0,0,1,0,11.0,1,9.0,8.0
1,1,15.0,0,0,1,1,8.0,1,8.0,11.0
1,0,14.0,0,1,0,1,9.0,1,9.0,7.0
1,1,18.0,0,0,1,1,7.0,1,7.0,9.0
1,1,13.0,1,1,1,1,6.0,1,5.0,8.0
1,1,15.0,1,0,0,1,5.0,1,8.0,9.0
1,1,14.0,0,0,0,1,8.0,0,3.0,9.0
1,1,18.0,0,0,1,1,9.0,1,7.0,5.0
1,1,13.0,0,0,1,1,7.0,1,6.0,8.0
1,1,16.0,0,1,0,1,8.0,1,4.0,6.0
1,1,17.0,0,0,0,1,5.0,1,5.0,6.0
0,1,18.0,1,1,1,1,6.0,0,7.0,6.0
1,1,15.0,0,0,0,1,4.0,1,11.0,6.0
0,1,18.0,0,0,1,1,9.0,0,9.0,4.0
1,1,13.0,0,0,1,0,6.0,0,8.0,8.0
1,1,14.0,0,0,1,0,5.0,1,9.0,8.0
1,1,14.0,0,0,0,1,4.0,0,6.0,5.0
0,1,16.0,1,1,0,1,7.0,1,5.0,6.0
1,0,13.0,0,0,1,1,8.0,1,8.0,10.0
0,1,17.0,0,0,1,1,7.0,1,5.0,6.0
1,1,17.0,0,0,0,0,8.0,1,7.0,7.0
1,0,14.0,1,0,0,1,8.0,1,4.0,8.0
0,1,18.0,0,0,1,1,6.0,0,10.0,11.0
1,1,16.0,1,0,1,1,4.0,1,6.0,7.0
1,1,13.0,0,0,1,1,4.0,0,8.0,7.0
1,1,14.0,1,0,1,1,5.0,1,7.0,4.0
0,1,14.0,1,1,1,1,6.0,1,3.0,10.0
0,1,16.0,0,0,1,1,9.0,0,11.0,10.0
0,0,17.0,0,0,1,0,12.0,1,12.0,10.0
1,1,16.0,0,0,1,1,7.0,0,8.0,7.0
0,1,14.0,1,1,0,1,6.0,1,5.0,7.0
1,0,15.0,1,0,1,1,8.0,1,9.0,8.0
1,1,14.0,0,0,0,1,7.0,0,6.0,5.0
0,1,18.0,0,0,1,1,8.0,1,12.0,8.0
0,1,14.0,0,0,1,1,9.0,0,7.0,12.0
0,1,15.0,0,0,1,1,6.0,1,8.0,12.0
1,1,14.0,1,0,0,1,7.0,1,7.0,6.0
0,1,13.0,0,0,1,0,9.0,1,6.0,6.0
1,1,15.0,0,0,1,1,4.0,1,9.0,6.0
1,1,17.0,0,0,1,0,5.0,1,5.0,9.0
1,1,15.0,0,0,0,1,9.0,0,7.0,5.0
0,0,13.0,0,0,1,1,10.0,0,12.0,8.0
1,1,15.0,0,0,1,1,8.0,1,10.0,6.0
0,1,14.0,1,1,0,1,8.0,1,7.0,7.0
0,1,15.0,0,0,1,1,10.0,1,8.0,10.0
0,1,17.0,1,1,0,1,6.0,0,6.0,7.0
1,1,14.0,0,0,1,0,8.0,1,5.0,11.0
0,0,15.0,0,0,1,1,5.0,1,11.0,7.0
1,0,15.0,0,0,0,1,10.0,0,8.0,10.0
1,1,13.0,0,0,0,1,5.0,0,8.0,8.0
0,1,16.0,1,1,1,1,6.0,0,8.0,9.0
1,1,14.0,0,0,1,0,8.0,0,11.0,9.0
1,0,13.0,0,0,1,1,9.0,0,8.0,9.0
1,1,13.0,0,0,1,1,9.0,1,7.0,8.0
0,0,15.0,0,0,1,0,12.0,1,12.0,12.0
1,1,17.0,0,0,1,1,4.0,1,9.0,5.0
1,1,16.0,0,0,0,0,5.0,0,6.0,10.0
1,1,13.0,0,0,1,1,5.0,0,8.0,4.0
1,1,14.0,0,0,1,1,4.0,1,9.0,8.0
1,1,16.0,0,0,0,1,7.0,0,6.0,4.0
0,0,17.0,0,0,1,1,12.0,0,10.0,12.0
0,1,18.0,1,0,1,1,6.0,1,5.0,7.0
1,1,15.0,0,0,1,0,8.0,1,11.0,8.0
1,1,17.0,0,0,1,1,2.0,1,8.0,5.0
0,1,13.0,0,0,1,1,7.0,1,6.0,8.0
1,0,16.0,0,1,1,0,8.0,0,10.0,8.0
1,1,18.0,0,0,0,1,5.0,1,7.0,6.0
0,1,15.0,1,1,1,1,9.0,1,8.0,6.0
1,1,18.0,0,0,1,0,10.0,1,8.0,5.0
0,1,18.0,0,0,0,0,8.0,0,8.0,9.0
1,0,16.0,0,0,1,1,12.0,0,7.0,6.0
1,1,18.0,0,0,0,1,7.0,1,5.0,4.0
0,1,14.0,1,0,0,1,5.0,0,5.0,8.0
0,1,15.0,0,0,1,1,8.0,1,12.0,6.0
0,1,18.0,0,0,0,0,7.0,0,7.0,7.0
1,1,16.0,1,0,0,1,7.0,1,10.0,6.0
1,1,13.0,1,0,0,1,5.0,1,9.0,7.0
0,1,15.0,0,0,1,0,4.0,0,11.0,7.0
0,1,21.0,1,0,0,1,9.0,0,5.0,7.0
0,1,13.0,1,0,0,1,7.0,1,6.0,5.0
1,1,18.0,0,1,0,1,3.0,1,4.0,9.0
1,1,14.0,0,0,1,0,5.0,1,8.0,10.0
1,0,16.0,0,1,1,0,9.0,1,5.0,11.0
0,0,17.0,1,1,0,1,5.0,1,8.0,11.0
0,1,13.0,0,0,0,1,9.0,0,10.0,6.0
0,1,13.0,0,1,1,1,11.0,0,8.0,12.0
0,0,13.0,1,0,0,1,5.0,1,6.0,9.0
0,0,15.0,1,0,0,1,11.0,1,8.0,11.0
0,1,13.0,0,0,1,1,6.0,1,7.0,9.0
1,1,16.0,0,1,0,1,3.0,1,9.0,1.0
1,1,16.0,0,0,1,1,7.0,1,8.0,8.0
1,1,16.0,0,0,1,0,7.0,1,6.0,7.0
1,1,15.0,0,0,1,1,8.0,1,9.0,8.0
0,1,13.0,0,0,1,1,8.0,1,9.0,6.0
0,1,14.0,1,0,1,1,6.0,0,9.0,7.0
0,1,15.0,0,0,1,0,11.0,1,8.0,12.0
1,1,17.0,0,0,0,1,8.0,1,6.0,6.0
1,1,15.0,0,1,1,1,7.0,1,10.0,6.0
0,1,18.0,1,0,1,1,6.0,1,10.0,7.0
1,1,16.0,0,0,0,1,8.0,1,6.0,8.0
1,1,15.0,0,0,0,1,10.0,0,6.0,7.0
0,1,16.0,1,0,0,1,7.0,0,9.0,7.0
1,1,18.0,0,0,1,0,8.0,1,9.0,6.0
1,0,13.0,0,0,0,1,6.0,0,10.0,7.0
1,1,14.0,0,0,0,1,7.0,0,4.0,9.0
0,1,14.0,0,0,1,0,6.0,1,12.0,10.0
1,1,14.0,0,0,0,0,8.0,0,8.0,8.0
1,1,13.0,0,0,1,0,8.0,0,8.0,3.0
1,1,16.0,0,0,1,1,3.0,1,7.0,8.0
1,0,14.0,1,0,0,0,7.0,1,5.0,7.0
1,1,16.0,0,0,1,1,9.0,1,7.0,10.0
0,1,14.0,1,0,0,1,6.0,1,4.0,4.0
0,1,13.0,0,0,0,0,9.0,0,9.0,9.0
0,1,17.0,1,0,1,1,8.0,0,5.0,10.0
0,1,19.0,1,1,1,1,6.0,1,8.0,5.0
1,1,15.0,0,0,1,1,5.0,1,8.0,9.0
1,1,16.0,0,0,0,0,8.0,0,7.0,10.0
1,1,18.0,0,0,0,1,7.0,1,3.0,6.0
0,1,16.0,0,0,1,0,4.0,0,8.0,12.0
1,1,17.0,0,0,1,1,8.0,1,8.0,4.0
1,1,16.0,0,0,0,1,7.0,1,4.0,8.0
1,1,18.0,0,0,1,1,7.0,1,5.0,7.0
0,0,16.0,1,1,1,1,11.0,1,9.0,8.0
1,1,16.0,0,0,1,0,10.0,1,8.0,9.0
1,1,16.0,0,0,0,1,10.0,1,6.0,9.0
1,1,13.0,0,0,0,1,10.0,0,4.0,7.0
1,1,13.0,0,0,1,1,7.0,0,4.0,7.0
0,1,18.0,0,0,0,1,7.0,1,5.0,9.0
0,0,18.0,1,0,1,1,9.0,1,8.0,9.0
0,0,16.0,1,1,1,1,4.0,1,5.0,10.0
0,0,13.0,0,0,0,1,12.0,0,9.0,6.0
1,1,17.0,0,0,1,0,4.0,1,9.0,10.0
1,1,15.0,0,0,0,1,4.0,1,5.0,6.0
1,0,13.0,0,0,1,0,8.0,1,11.0,12.0
0,1,16.0,0,0,1,1,2.0,0,9.0,8.0
0,1,17.0,1,0,1,0,8.0,1,9.0,8.0
1,1,17.0,1,0,0,1,7.0,0,4.0,8.0
0,1,14.0,1,1,0,1,7.0,0,10.0,8.0
1,1,14.0,1,0,0,1,11.0,0,5.0,5.0
1,1,13.0,0,0,1,1,6.0,1,8.0,10.0
0,0,18.0,1,1,1,0,8.0,1,11.0,10.0
0,0,15.0,1,1,0,1,7.0,0,7.0,9.0
1,1,18.0,0,0,0,1,8.0,1,5.0,7.0
1,1,14.0,0,0,1,1,5.0,1,9.0,9.0
0,1,18.0,0,0,1,1,8.0,1,7.0,8.0
1,1,13.0,0,0,1,1,7.0,1,7.0,11.0
1,0,15.0,1,1,0,1,10.0,1,5.0,8.0
1,1,13.0,0,0,0,0,10.0,0,8.0,10.0
1,1,14.0,0,0,0,1,6.0,0,7.0,9.0
0,1,13.0,0,0,1,1,6.0,0,6.0,5.0
1,1,14.0,0,0,0,0,10.0,1,8.0,4.0
0,1,19.0,1,0,1,1,4.0,1,11.0,8.0
1,1,14.0,0,0,1,0,6.0,1,9.0,11.0
1,1,17.0,0,0,1,0,9.0,1,7.0,9.0
1,1,13.0,0,0,0,1,5.0,0,5.0,9.0
1,1,20.0,0,0,0,0,7.0,1,8.0,8.0
1,0,15.0,0,0,1,1,8.0,1,8.0,10.0
1,1,17.0,1,0,0,1,6.0,1,8.0,3.0
1,1,17.0,0,0,0,1,7.0,1,7.0,4.0
1,1,14.0,1,0,0,1,8.0,0,7.0,4.0
1,0,16.0,0,0,1,1,7.0,1,7.0,6.0
1,1,14.0,0,0,0,1,5.0,1,4.0,9.0
0,1,14.0,1,0,0,1,6.0,1,6.0,8.0
0,1,13.0,0,0,1,1,8.0,1,6.0,5.0
1,0,15.0,1,1,1,1,8.0,1,4.0,9.0
1,1,16.0,0,0,1,1,10.0,0,8.0,8.0
0,1,17.0,0,0,1,1,8.0,1,8.0,4.0
0,1,15.0,1,0,1,1,6.0,1,10.0,7.0
0,1,16.0,1,0,1,1,3.0,1,12.0,10.0
1,1,16.0,0,0,1,0,7.0,0,9.0,9.0
1,1,14.0,0,0,0,0,5.0,1,5.0,10.0
1,1,13.0,0,1,0,1,9.0,0,5.0,6.0
1,1,14.0,1,0,0,0,8.0,1,6.0,7.0
0,0,13.0,1,1,1,1,3.0,1,10.0,11.0
0,0,17.0,1,1,0,1,9.0,1,9.0,6.0
1,1,20.0,0,0,1,0,7.0,1,12.0,8.0
1,1,17.0,0,0,1,0,11.0,0,4.0,8.0
0,0,14.0,1,0,0,1,5.0,1,9.0,3.0
1,0,15.0,0,1,0,0,4.0,0,9.0,5.0
1,1,17.0,0,0,1,1,6.0,0,7.0,12.0
0,1,14.0,1,0,0,1,10.0,0,5.0,5.0
1,1,15.0,0,0,0,1,5.0,0,1.0,7.0
1,1,13.0,1,1,0,1,10.0,1,5.0,6.0
1,1,13.0,0,0,0,1,5.0,0,6.0,5.0
1,0,14.0,0,0,1,0,11.0,0,10.0,10.0
1,1,16.0,0,0,0,1,5.0,1,6.0,6.0
1,1,13.0,0,0,0,1,5.0,1,3.0,9.0
1,1,16.0,0,0,1,1,5.0,0,11.0,5.0
0,0,15.0,0,0,1,1,8.0,1,7.0,12.0
1,1,19.0,0,0,1,1,3.0,0,8.0,8.0
1,1,13.0,0,0,1,1,5.0,1,8.0,9.0
1,1,13.0,0,1,0,1,7.0,1,8.0,8.0
1,1,13.0,0,0,0,1,5.0,1,10.0,11.0
1,1,15.0,0,0,1,1,9.0,0,9.0,9.0
1,1,17.0,1,0,1,1,9.0,0,6.0,4.0
0,1,15.0,0,0,0,1,7.0,0,6.0,7.0
0,1,16.0,0,0,1,1,8.0,1,6.0,8.0
1,1,15.0,0,0,1,1,9.0,0,10.0,9.0
0,1,15.0,0,0,0,1,9.0,0,7.0,8.0
1,1,13.0,0,0,1,1,7.0,1,6.0,9.0
1,1,19.0,1,0,1,1,9.0,1,6.0,5.0
1,1,16.0,0,0,1,1,10.0,0,7.0,6.0
1,1,13.0,0,0,0,1,5.0,1,7.0,4.0
1,1,13.0,0,0,0,1,8.0,1,11.0,4.0
1,1,16.0,0,0,1,1,5.0,1,7.0,8.0
1,1,15.0,1,0,1,1,10.0,1,7.0,6.0
0,1,14.0,1,0,0,1,6.0,0,6.0,11.0
0,1,18.0,0,0,1,1,9.0,0,9.0,7.0
0,1,14.0,1,0,0,1,8.0,0,8.0,6.0
1,1,13.0,0,0,0,0,8.0,1,7.0,5.0
1,1,16.0,0,0,1,1,6.0,0,8.0,10.0
1,1,16.0,0,0,0,1,8.0,1,5.0,10.0
0,1,13.0,0,0,0,1,6.0,0,5.0,6.0
1,1,17.0,0,0,1,1,4.0,1,6.0,9.0
1,1,19.0,1,0,0,0,6.0,1,5.0,9.0
0,1,14.0,0,0,1,1,8.0,0,6.0,11.0
0,1,14.0,1,0,1,1,6.0,0,8.0,8.0
1,1,14.0,0,0,1,1,7.0,1,11.0,7.0
0,1,17.0,1,0,0,1,6.0,0,7.0,8.0
0,1,17.0,0,0,1,1,4.0,0,5.0,9.0
1,1,13.0,0,0,1,1,7.0,1,5.0,10.0
0,1,17.0,1,0,1,0,12.0,1,7.0,10.0
0,0,18.0,1,0,1,1,9.0,1,5.0,9.0
1,1,16.0,0,0,1,1,8.0,1,4.0,6.0
1,1,13.0,0,0,1,1,7.0,1,8.0,8.0
1,1,17.0,0,0,0,0,8.0,1,5.0,8.0
1,1,13.0,0,0,0,0,7.0,1,8.0,11.0
0,1,16.0,0,0,0,1,7.0,0,10.0,6.0
1,0,17.0,1,1,0,1,7.0,0,7.0,4.0
0,1,17.0,1,0,1,1,7.0,1,2.0,10.0
0,1,13.0,0,0,1,1,9.0,1,6.0,7.0
1,1,14.0,0,0,0,1,7.0,0,9.0,6.0
0,1,16.0,0,1,1,1,9.0,0,9.0,10.0
0,0,15.0,1,0,1,1,6.0,1,10.0,9.0
0,1,13.0,0,0,0,1,8.0,0,10.0,7.0
1,0,14.0,0,0,1,0,10.0,0,8.0,12.0
1,1,15.0,0,0,1,1,6.0,0,9.0,6.0
0,0,13.0,0,1,1,0,5.0,1,9.0,12.0
0,0,18.0,1,0,0,1,7.0,0,8.0,5.0
1,1,17.0,0,0,1,1,8.0,1,6.0,10.0
1,0,15.0,0,0,1,1,9.0,0,9.0,7.0
1,1,14.0,1,0,0,1,4.0,1,9.0,6.0
0,1,14.0,0,0,1,1,8.0,1,7.0,10.0
1,0,14.0,0,0,1,1,10.0,0,3.0,9.0
1,0,13.0,0,0,1,1,11.0,0,9.0,10.0
1,1,15.0,0,0,1,1,6.0,0,4.0,11.0
1,0,17.0,0,0,1,1,6.0,0,12.0,7.0
0,1,15.0,0,1,1,1,10.0,0,10.0,8.0
0,0,14.0,1,1,1,1,7.0,1,8.0,8.0
1,0,15.0,0,0,1,1,9.0,0,8.0,10.0
1,0,17.0,0,0,1,1,11.0,0,8.0,9.0
1,1,14.0,0,0,1,1,5.0,0,9.0,8.0
0,1,13.0,1,0,1,1,8.0,0,5.0,7.0
1,1,17.0,1,0,0,1,3.0,0,4.0,1.0
0,1,13.0,0,0,1,1,8.0,1,11.0,7.0
1,1,16.0,0,0,0,1,3.0,1,6.0,4.0
0,1,15.0,0,0,1,1,9.0,0,12.0,9.0
1,1,13.0,0,0,1,1,7.0,1,8.0,6.0
1,1,18.0,0,0,0,1,6.0,1,8.0,9.0
1,1,17.0,0,0,0,1,10.0,0,6.0,6.0
1,1,16.0,0,0,0,1,10.0,0,7.0,6.0
1,1,16.0,0,0,1,0,9.0,1,7.0,6.0
0,1,16.0,1,0,1,1,6.0,1,9.0,10.0
0,1,13.0,0,0,1,0,6.0,1,12.0,9.0
1,1,14.0,0,0,1,1,4.0,1,9.0,8.0
1,0,13.0,0,0,0,1,7.0,1,6.0,11.0
1,1,16.0,0,0,1,1,6.0,1,8.0,5.0
1,1,18.0,1,1,0,1,6.0,0,7.0,6.0
1,1,14.0,0,0,1,1,1.0,0,8.0,8.0
1,1,15.0,0,0,1,1,5.0,1,6.0,9.0
0,1,14.0,1,0,1,0,7.0,1,9.0,7.0
1,0,14.0,0,0,1,1,4.0,1,8.0,6.0
1,1,14.0,0,0,1,1,6.0,0,10.0,10.0
0,1,13.0,0,0,1,1,5.0,1,8.0,8.0
1,1,17.0,0,0,1,1,5.0,1,7.0,6.0
0,0,15.0,1,1,0,1,6.0,1,6.0,4.0
1,0,17.0,0,0,0,1,4.0,0,6.0,4.0
0,1,16.0,0,0,1,0,11.0,0,8.0,12.0
1,0,13.0,1,1,0,1,10.0,0,6.0,8.0
1,1,14.0,0,0,1,1,5.0,1,7.0,11.0
1,1,13.0,0,0,1,0,8.0,1,11.0,9.0
1,1,17.0,1,0,0,1,4.0,0,10.0,5.0
1,0,15.0,0,1,0,1,5.0,0,10.0,6.0
0,1,13.0,0,0,0,0,8.0,1,8.0,8.0
1,1,13.0,0,0,1,0,7.0,0,7.0,9.0
0,1,14.0,0,0,1,0,6.0,1,8.0,5.0
0,0,13.0,0,0,0,1,9.0,0,9.0,9.0
1,1,15.0,0,0,1,1,5.0,1,8.0,5.0
0,1,13.0,0,0,1,0,8.0,1,10.0,8.0
1,0,19.0,0,0,1,1,7.0,1,8.0,8.0
0,1,17.0,0,0,1,1,5.0,1,8.0,8.0
1,1,14.0,0,0,0,1,11.0,1,8.0,2.0
0,1,13.0,0,0,1,1,8.0,0,11.0,11.0
0,1,15.0,0,0,0,0,10.0,1,7.0,9.0
0,0,13.0,1,0,1,1,7.0,1,8.0,8.0
1,1,17.0,0,0,0,0,9.0,0,12.0,6.0
1,1,17.0,0,0,1,1,8.0,0,8.0,9.0
1,0,18.0,1,1,0,1,10.0,0,7.0,7.0
0,1,14.0,0,0,0,1,7.0,0,7.0,8.0
1,1,17.0,0,0,1,1,8.0,1,6.0,4.0
0,1,18.0,1,1,0,1,7.0,1,7.0,8.0
0,0,14.0,0,0,1,1,9.0,0,10.0,10.0
1,1,14.0,0,0,1,0,11.0,1,7.0,11.0
1,1,18.0,0,0,0,1,5.0,0,7.0,7.0
0,1,15.0,0,0,0,1,3.0,1,5.0,4.0
0,1,16.0,0,0,1,1,7.0,0,8.0,8.0
0,1,15.0,0,0,0,1,8.0,0,8.0,5.0
0,1,13.0,1,0,0,1,7.0,1,8.0,7.0
1,1,17.0,0,0,0,1,5.0,0,5.0,9.0
1,1,13.0,0,0,1,1,4.0,0,7.0,10.0
0,1,17.0,1,0,1,0,7.0,1,8.0,10.0
1,1,14.0,0,0,1,1,6.0,1,4.0,8.0
1,1,15.0,0,0,0,1,4.0,1,9.0,4.0
1,1,14.0,0,0,1,1,8.0,0,7.0,8.0
1,0,16.0,1,0,1,1,6.0,0,11.0,6.0
0,1,16.0,0,0,0,1,8.0,1,7.0,6.0
1,1,18.0,0,0,1,1,5.0,1,8.0,9.0
1,1,15.0,0,0,1,1,5.0,0,6.0,8.0
0,1,15.0,0,0,1,1,7.0,1,10.0,12.0
0,1,14.0,0,0,1,1,9.0,0,8.0,6.0
0,1,15.0,0,0,0,1,5.0,1,8.0,8.0
0,1,14.0,0,0,0,1,8.0,0,9.0,9.0
1,1,17.0,0,0,0,0,10.0,1,6.0,8.0
1,0,18.0,0,0,1,1,5.0,1,8.0,4.0
0,1,13.0,0,0,0,0,12.0,0,8.0,9.0
1,1,13.0,0,0,1,1,3.0,0,7.0,10.0
1,1,13.0,0,0,1,0,7.0,1,6.0,11.0
0,0,16.0,1,1,1,1,12.0,1,10.0,9.0
0,0,13.0,0,0,1,1,10.0,0,6.0,6.0
1,1,16.0,0,0,1,1,4.0,0,7.0,6.0
0,1,18.0,1,0,1,1,7.0,0,9.0,8.0
1,1,17.0,0,0,1,1,8.0,1,9.0,11.0
1,1,13.0,0,1,0,0,8.0,1,7.0,7.0
1,1,13.0,0,0,0,0,6.0,1,9.0,6.0
1,0,13.0,0,0,1,1,9.0,0,7.0,8.0
1,1,16.0,0,0,0,1,8.0,0,6.0,5.0
1,1,13.0,0,0,1,1,9.0,0,11.0,9.0
1,1,15.0,0,0,0,1,9.0,0,5.0,4.0
1,1,15.0,0,0,1,1,6.0,0,5.0,12.0
1,1,13.0,1,0,0,1,9.0,0,7.0,7.0
0,1,17.0,1,0,0,1,9.0,1,7.0,5.0
1,1,13.0,0,0,1,1,4.0,0,10.0,6.0
1,0,14.0,1,0,0,1,6.0,0,7.0,8.0
1,1,13.0,0,0,0,1,6.0,1,8.0,8.0
1,0,15.0,1,0,1,1,8.0,0,11.0,8.0
1,1,14.0,0,0,0,0,7.0,0,9.0,7.0
0,1,20.0,1,0,0,1,7.0,0,5.0,10.0
1,1,14.0,0,0,0,1,6.0,0,5.0,6.0
0,1,15.0,1,0,1,1,6.0,1,9.0,8.0
0,1,14.0,0,0,1,1,10.0,0,8.0,6.0
0,1,17.0,1,0,0,1,7.0,0,4.0,6.0
0,1,15.0,0,0,1,1,8.0,1,9.0,8.0
0,1,13.0,0,0,1,1,6.0,0,5.0,8.0
0,1,15.0,0,0,1,0,9.0,1,6.0,11.0
1,1,16.0,0,0,0,1,7.0,1,6.0,8.0
1,1,13.0,0,0,0,1,5.0,0,10.0,4.0
1,0,13.0,0,0,0,1,5.0,0,5.0,10.0
0,1,14.0,1,0,0,1,5.0,1,8.0,6.0
1,1,16.0,0,0,0,0,9.0,0,9.0,10.0
0,1,14.0,0,0,1,1,5.0,0,10.0,7.0
0,0,13.0,1,1,0,1,8.0,0,8.0,7.0
1,1,13.0,0,0,1,1,8.0,1,7.0,8.0
1,1,17.0,0,0,0,1,5.0,0,6.0,7.0
1,1,16.0,0,0,1,0,11.0,0,9.0,10.0
0,1,16.0,0,0,0,0,5.0,1,8.0,9.0
1,1,15.0,0,0,0,1,7.0,0,6.0,5.0
0,1,19.0,0,0,0,1,7.0,1,9.0,12.0
0,1,15.0,1,0,0,1,8.0,1,5.0,4.0
1,0,15.0,0,0,0,1,5.0,0,7.0,8.0
0,0,14.0,1,0,0,1,9.0,0,9.0,6.0
1,1,14.0,1,0,0,1,4.0,0,7.0,7.0
1,1,17.0,0,0,1,1,7.0,0,4.0,9.0
0,1,13.0,0,1,1,1,8.0,0,5.0,9.0
0,1,13.0,0,1,1,0,9.0,1,10.0,9.0
1,1,18.0,0,0,1,1,4.0,0,5.0,10.0
1,1,13.0,0,0,0,1,7.0,0,6.0,8.0
1,1,13.0,0,0,1,0,7.0,0,8.0,7.0
1,0,15.0,0,1,1,1,6.0,1,8.0,11.0
0,1,14.0,0,1,1,0,12.0,1,12.0,7.0
0,1,16.0,0,0,0,1,4.0,0,8.0,10.0
1,1,13.0,0,0,0,1,6.0,0,8.0,3.0
1,1,18.0,0,0,0,0,6.0,1,7.0,4.0
1,1,13.0,0,0,1,0,3.0,1,12.0,8.0
1,0,15.0,1,0,1,0,7.0,1,8.0,9.0
0,1,15.0,1,0,0,1,7.0,0,4.0,7.0
0,1,15.0,1,0,0,1,9.0,0,9.0,5.0
1,1,15.0,1,0,0,1,7.0,1,4.0,2.0
1,1,15.0,0,0,0,1,8.0,1,5.0,5.0
1,1,15.0,0,0,0,1,8.0,1,6.0,7.0
1,1,18.0,0,0,1,0,6.0,1,7.0,8.0
1,1,15.0,0,0,0,1,6.0,0,5.0,11.0
1,1,17.0,0,0,1,1,8.0,0,10.0,7.0
1,1,14.0,0,0,1,1,6.0,1,6.0,7.0
0,1,15.0,1,0,0,1,9.0,1,8.0,9.0
0,1,15.0,0,0,0,1,6.0,0,7.0,2.0
0,1,17.0,0,0,1,1,6.0,1,9.0,9.0
1,1,14.0,0,0,1,1,6.0,1,9.0,7.0
0,1,14.0,1,0,1,1,8.0,1,8.0,6.0
0,1,15.0,0,0,0,0,7.0,1,6.0,10.0
1,1,15.0,0,0,1,1,7.0,1,9.0,11.0
0,1,13.0,1,0,1,0,9.0,0,9.0,9.0
1,1,13.0,0,0,1,1,8.0,1,12.0,9.0
1,1,17.0,0,0,0,1,11.0,0,9.0,5.0
1,1,14.0,0,0,1,1,8.0,1,9.0,6.0
1,1,15.0,0,0,0,1,6.0,1,4.0,7.0
1,1,16.0,1,1,0,1,5.0,0,7.0,7.0
1,1,16.0,1,0,0,1,7.0,1,9.0,9.0
0,1,18.0,0,0,1,0,7.0,1,9.0,11.0
0,1,16.0,0,0,0,1,7.0,0,7.0,7.0
1,1,14.0,1,0,0,1,8.0,1,11.0,8.0
1,0,15.0,0,0,0,1,7.0,0,10.0,7.0
1,1,17.0,0,0,1,1,6.0,1,9.0,11.0
1,1,17.0,0,0,0,1,6.0,1,7.0,6.0
0,1,13.0,0,0,0,0,7.0,0,7.0,8.0
0,1,16.0,0,0,1,0,9.0,1,11.0,9.0
0,1,19.0,0,0,1,0,9.0,1,10.0,9.0
1,1,15.0,0,1,0,1,9.0,0,7.0,5.0
0,1,15.0,0,0,1,1,8.0,0,10.0,11.0
1,1,13.0,0,0,0,1,11.0,0,6.0,6.0
1,0,13.0,1,0,0,0,7.0,0,11.0,6.0
1,1,15.0,0,0,1,0,12.0,1,8.0,11.0
1,1,17.0,0,0,0,1,8.0,0,6.0,7.0
1,1,14.0,0,0,1,1,7.0,1,9.0,6.0
0,1,17.0,0,0,0,0,8.0,0,8.0,9.0
1,1,17.0,0,0,1,1,5.0,0,7.0,7.0
0,0,14.0,1,1,0,1,6.0,1,9.0,7.0
1,0,16.0,0,0,0,0,5.0,1,5.0,6.0
0,1,15.0,0,0,0,1,6.0,1,5.0,8.0
0,1,15.0,0,0,1,1,7.0,1,11.0,6.0
1,1,17.0,1,0,1,1,6.0,1,8.0,7.0
1,1,20.0,0,0,1,1,8.0,1,6.0,7.0
1,1,13.0,0,1,0,1,8.0,0,9.0,8.0
1,1,14.0,0,0,1,1,9.0,0,6.0,6.0
1,1,17.0,0,0,1,0,7.0,1,7.0,9.0
1,1,15.0,0,0,1,0,7.0,1,9.0,9.0
1,1,14.0,0,0,0,1,7.0,0,9.0,4.0
0,0,18.0,0,1,1,1,4.0,1,9.0,12.0
1,1,15.0,0,0,1,1,7.0,1,8.0,9.0
1,1,17.0,0,0,0,1,6.0,1,9.0,9.0
0,1,14.0,0,0,0,1,11.0,0,9.0,11.0
0,1,13.0,0,0,1,1,8.0,1,11.0,7.0
1,1,14.0,0,0,0,1,5.0,0,8.0,9.0
1,1,16.0,0,0,1,1,7.0,1,8.0,6.0
0,1,15.0,1,0,1,0,10.0,0,9.0,9.0
0,1,13.0,0,0,1,1,7.0,1,7.0,9.0
1,0,19.0,1,0,1,0,9.0,1,7.0,7.0
1,1,15.0,0,1,0,1,5.0,1,6.0,6.0
1,1,13.0,0,0,0,0,7.0,1,5.0,9.0
1,1,18.0,0,0,1,0,4.0,1,8.0,7.0
0,1,17.0,1,0,0,0,10.0,1,2.0,6.0
0,1,14.0,1,0,1,1,6.0,0,8.0,9.0
0,1,16.0,0,0,1,1,8.0,1,8.0,10.0
1,1,17.0,0,0,1,1,5.0,1,10.0,5.0
1,1,16.0,0,0,1,1,6.0,1,7.0,7.0
1,0,15.0,0,1,1,1,4.0,1,9.0,9.0
1,1,13.0,0,0,1,1,7.0,1,2.0,7.0
0,0,14.0,0,0,1,0,8.0,1,11.0,9.0
0,1,15.0,0,0,1,1,10.0,0,9.0,4.0
1,1,14.0,0,0,0,0,9.0,0,8.0,10.0
0,1,14.0,1,0,0,1,5.0,0,9.0,6.0
1,0,16.0,0,0,0,1,6.0,0,10.0,8.0
0,1,14.0,0,0,1,1,5.0,0,6.0,11.0
1,1,13.0,0,0,1,0,9.0,1,8.0,8.0
1,1,14.0,0,0,1,0,5.0,1,6.0,9.0
0,1,14.0,0,0,0,1,8.0,0,5.0,10.0
1,1,15.0,0,0,0,1,8.0,1,10.0,9.0
1,1,13.0,1,0,0,1,5.0,0,5.0,9.0
1,1,14.0,1,1,0,1,3.0,0,4.0,10.0
0,1,13.0,1,0,0,1,9.0,1,7.0,6.0
0,1,17.0,1,1,1,1,10.0,1,9.0,9.0
0,1,15.0,0,0,1,1,7.0,0,7.0,7.0
0,1,16.0,0,0,1,1,8.0,0,11.0,6.0
1,1,16.0,0,0,1,1,4.0,1,8.0,7.0
1,1,13.0,0,0,0,0,7.0,0,6.0,6.0
1,1,15.0,0,0,0,1,9.0,0,9.0,12.0
1,1,18.0,0,0,0,1,2.0,1,7.0,8.0
1,1,13.0,0,0,1,1,7.0,1,8.0,8.0
1,1,17.0,0,0,1,0,6.0,1,6.0,6.0
0,1,15.0,0,1,0,1,10.0,0,6.0,7.0
1,1,13.0,0,0,1,1,6.0,1,7.0,5.0
1,1,16.0,0,0,0,1,7.0,1,5.0,5.0
1,1,17.0,0,0,0,1,10.0,0,6.0,12.0
0,0,15.0,1,1,1,1,8.0,1,3.0,10.0
1,0,16.0,0,0,1,1,10.0,0,8.0,8.0
1,1,19.0,0,0,0,0,8.0,0,9.0,5.0
1,1,14.0,0,0,0,0,9.0,0,8.0,7.0
0,1,19.0,1,0,1,1,10.0,1,10.0,5.0
1,1,18.0,0,0,1,1,6.0,1,7.0,8.0
0,1,13.0,0,0,0,1,7.0,1,9.0,8.0
0,1,15.0,0,0,1,1,10.0,1,7.0,7.0
0,1,15.0,0,0,1,0,6.0,1,8.0,5.0
1,1,18.0,0,0,1,1,4.0,1,9.0,10.0
1,1,17.0,1,0,1,1,7.0,1,5.0,7.0
0,1,18.0,1,0,0,0,11.0,0,6.0,7.0
1,0,13.0,1,0,1,0,10.0,1,9.0,9.0
1,1,18.0,0,0,1,1,7.0,1,9.0,8.0
1,1,16.0,0,0,0,0,9.0,0,7.0,6.0
1,0,13.0,0,1,0,0,5.0,0,7.0,3.0
1,0,18.0,0,0,0,0,4.0,0,7.0,12.0
1,1,13.0,0,0,0,1,5.0,1,7.0,9.0
1,0,17.0,1,0,0,1,9.0,1,7.0,4.0
1,1,14.0,0,0,0,0,6.0,1,4.0,8.0
1,0,15.0,0,1,1,1,3.0,1,8.0,9.0
1,0,16.0,0,0,1,0,8.0,0,10.0,10.0
1,1,15.0,1,0,0,1,7.0,0,8.0,4.0
1,1,13.0,0,0,0,0,10.0,0,7.0,4.0
0,0,16.0,0,1,1,1,12.0,0,10.0,6.0
0,1,13.0,1,1,0,0,6.0,1,7.0,9.0
1,1,16.0,1,0,0,1,6.0,0,6.0,5.0
1,1,13.0,0,0,0,1,9.0,0,7.0,8.0
0,1,15.0,0,0,1,1,7.0,0,5.0,9.0
1,0,16.0,0,0,0,0,5.0,1,8.0,7.0
0,1,19.0,0,0,1,1,6.0,0,7.0,7.0
0,1,13.0,0,0,1,0,6.0,1,7.0,7.0
0,1,16.0,1,1,0,1,8.0,1,7.0,8.0
1,1,13.0,1,0,0,1,7.0,0,10.0,6.0
1,1,16.0,1,0,0,1,5.0,1,4.0,5.0
1,1,15.0,1,0,0,0,9.0,1,6.0,7.0
1,1,17.0,0,0,1,0,8.0,1,9.0,7.0
1,1,18.0,0,0,1,1,6.0,0,9.0,10.0
1,1,14.0,0,0,1,1,7.0,1,10.0,8.0
0,1,15.0,0,0,1,0,6.0,1,7.0,10.0
1,1,17.0,0,0,0,0,5.0,1,5.0,8.0
1,1,14.0,0,0,1,1,4.0,1,9.0,7.0
1,1,16.0,0,0,1,1,8.0,1,9.0,10.0
0,1,17.0,1,0,0,1,4.0,1,7.0,9.0
0,1,13.0,0,0,0,1,8.0,0,8.0,8.0
1,1,13.0,0,0,0,1,7.0,0,8.0,6.0
0,1,15.0,0,0,0,1,7.0,1,9.0,7.0
1,1,17.0,1,0,0,1,5.0,1,7.0,7.0
0,0,13.0,0,0,0,1,7.0,0,8.0,10.0
1,1,16.0,0,0,0,1,7.0,0,10.0,6.0
1,0,14.0,1,1,0,1,6.0,1,6.0,9.0
1,1,15.0,0,0,0,0,6.0,1,6.0,7.0
0,1,17.0,0,0,1,0,8.0,1,11.0,6.0
0,0,15.0,0,0,1,0,8.0,1,11.0,9.0
0,1,13.0,0,0,1,1,6.0,1,8.0,10.0
1,1,15.0,1,0,0,1,8.0,1,5.0,6.0
1,1,15.0,0,0,0,1,11.0,0,5.0,6.0
1,1,14.0,0,1,0,1,10.0,0,6.0,5.0
1,0,17.0,0,0,1,1,7.0,1,8.0,7.0
1,0,14.0,0,0,1,1,8.0,0,10.0,10.0
0,1,13.0,1,1,0,1,8.0,1,5.0,9.0
1,0,16.0,0,0,1,1,10.0,0,10.0,11.0
1,0,16.0,1,0,1,0,6.0,1,8.0,11.0
1,1,15.0,0,0,1,0,5.0,1,8.0,7.0
1,1,13.0,0,0,0,1,5.0,1,6.0,6.0
1,1,15.0,0,0,0,0,9.0,1,10.0,6.0
0,1,20.0,0,0,1,1,7.0,1,10.0,7.0
0,1,16.0,0,0,1,0,8.0,0,8.0,9.0
1,1,13.0,0,0,1,1,3.0,1,6.0,7.0
0,1,13.0,0,0,1,1,6.0,1,8.0,10.0
1,0,15.0,1,0,0,1,7.0,0,10.0,9.0
0,0,16.0,0,0,1,1,9.0,0,8.0,11.0
1,0,14.0,0,0,1,0,8.0,0,9.0,9.0
1,0,19.0,0,0,0,1,7.0,0,5.0,6.0
1,1,16.0,0,0,1,0,6.0,1,11.0,9.0
0,1,16.0,0,0,1,0,6.0,1,10.0,12.0
1,1,18.0,0,0,1,1,8.0,0,7.0,10.0
0,1,15.0,1,1,0,1,10.0,0,5.0,7.0
1,1,13.0,0,1,1,1,9.0,0,8.0,6.0
1,1,14.0,0,0,1,1,7.0,1,4.0,9.0
0,1,14.0,0,0,1,0,7.0,1,9.0,11.0
1,1,14.0,0,0,0,0,4.0,1,7.0,10.0
0,1,15.0,0,0,1,1,8.0,0,9.0,8.0
0,1,16.0,0,0,1,1,5.0,1,6.0,8.0
1,1,13.0,0,0,1,1,3.0,1,10.0,9.0
0,1,13.0,1,0,0,1,10.0,1,6.0,6.0
1,1,15.0,0,0,1,0,7.0,0,8.0,8.0
1,1,16.0,0,0,1,1,7.0,1,11.0,8.0
1,1,16.0,0,0,1,1,6.0,0,5.0,10.0
0,1,16.0,0,0,1,0,7.0,1,10.0,11.0
1,0,17.0,0,0,1,1,7.0,1,6.0,10.0
1,1,14.0,0,0,0,1,5.0,1,5.0,6.0
1,1,17.0,0,0,1,1,9.0,1,9.0,9.0
1,0,16.0,0,0,1,1,6.0,0,11.0,6.0
1,1,15.0,0,0,0,1,4.0,1,4.0,6.0
1,1,19.0,0,0,0,0,8.0,0,5.0,5.0
0,1,14.0,1,0,1,1,6.0,0,8.0,7.0
0,1,13.0,0,0,1,1,4.0,1,6.0,10.0
1,1,18.0,0,0,1,1,8.0,1,9.0,9.0
0,1,15.0,0,0,1,1,5.0,1,10.0,8.0
0,1,17.0,0,0,1,1,10.0,0,7.0,7.0
0,1,16.0,0,0,1,0,8.0,1,9.0,11.0
1,1,13.0,1,0,0,1,5.0,1,7.0,6.0
1,1,16.0,0,0,1,1,5.0,1,9.0,9.0
1,1,16.0,0,0,0,1,9.0,1,6.0,5.0
1,0,15.0,1,1,0,1,8.0,1,7.0,10.0
0,1,16.0,0,0,0,1,8.0,0,6.0,7.0
0,1,17.0,0,0,0,1,8.0,1,6.0,8.0
1,1,18.0,0,0,0,0,9.0,0,10.0,5.0
1,1,17.0,0,0,1,0,4.0,1,8.0,5.0
0,0,13.0,1,1,1,0,10.0,1,11.0,6.0
0,1,15.0,1,1,0,1,7.0,1,9.0,3.0
0,1,14.0,1,0,0,1,7.0,1,7.0,8.0
0,1,14.0,1,0,0,0,7.0,0,5.0,11.0
1,1,14.0,0,0,1,1,4.0,0,10.0,11.0
1,1,15.0,1,0,0,1,7.0,1,7.0,6.0
1,0,15.0,0,1,0,1,9.0,0,7.0,9.0
1,1,19.0,0,0,0,1,8.0,0,6.0,5.0
1,1,15.0,0,0,0,1,9.0,0,6.0,6.0
1,0,19.0,0,1,1,1,9.0,0,6.0,10.0
0,1,15.0,1,0,1,1,7.0,0,6.0,9.0
0,1,17.0,0,0,1,1,5.0,1,5.0,6.0
1,1,14.0,0,0,1,1,8.0,0,2.0,9.0
1,1,15.0,0,1,1,1,8.0,1,10.0,9.0
1,1,14.0,0,0,0,1,4.0,0,9.0,6.0
0,1,16.0,0,0,0,1,7.0,1,7.0,8.0
1,1,13.0,0,0,1,1,7.0,1,4.0,4.0
0,0,14.0,0,0,1,1,8.0,0,9.0,6.0
0,1,15.0,1,0,0,1,10.0,1,5.0,5.0
1,1,16.0,1,0,0,1,5.0,1,8.0,5.0
1,0,16.0,0,0,1,1,9.0,0,11.0,8.0
0,1,14.0,0,0,1,1,8.0,0,9.0,12.0
0,1,13.0,1,1,0,1,9.0,0,7.0,5.0
1,1,13.0,0,0,1,0,10.0,0,7.0,10.0
1,1,13.0,0,0,0,0,6.0,1,12.0,7.0
1,0,14.0,0,0,0,0,6.0,0,2.0,9.0
1,0,14.0,0,0,1,1,9.0,1,9.0,8.0
1,1,13.0,0,0,0,1,7.0,0,6.0,9.0
1,1,16.0,0,0,1,1,8.0,1,7.0,7.0
1,1,14.0,0,0,1,1,3.0,1,11.0,7.0
1,0,15.0,1,0,0,1,5.0,1,9.0,9.0
0,0,13.0,0,0,0,1,9.0,0,11.0,10.0
1,1,18.0,0,0,1,1,8.0,0,12.0,7.0
1,1,14.0,1,0,0,1,6.0,1,4.0,6.0
1,0,13.0,1,1,0,1,7.0,0,8.0,8.0
0,1,13.0,0,0,1,1,9.0,0,10.0,7.0
1,0,13.0,1,0,0,0,8.0,1,10.0,7.0
0,1,13.0,1,0,0,0,5.0,0,12.0,5.0
1,1,16.0,0,0,0,0,8.0,1,10.0,6.0
1,1,20.0,0,0,1,1,5.0,1,9.0,7.0
1,0,13.0,1,0,0,0,5.0,1,9.0,6.0
1,1,14.0,0,0,1,0,8.0,0,9.0,9.0
1,1,13.0,0,0,1,0,9.0,1,7.0,5.0
1,1,13.0,0,0,0,1,8.0,1,9.0,6.0
0,0,17.0,1,1,0,1,11.0,1,4.0,10.0
0,1,13.0,0,0,0,1,9.0,0,8.0,6.0
1,1,17.0,0,1,1,0,9.0,0,7.0,5.0
0,1,18.0,0,0,0,1,7.0,0,5.0,7.0
1,1,15.0,0,0,1,1,7.0,0,10.0,6.0
1,1,13.0,0,0,1,1,6.0,1,12.0,10.0
1,1,13.0,0,0,1,1,5.0,1,6.0,7.0
1,1,16.0,0,1,0,1,9.0,0,4.0,7.0
1,1,19.0,0,1,0,0,8.0,0,6.0,9.0
1,1,14.0,0,0,0,1,7.0,0,6.0,7.0
1,1,16.0,0,0,1,0,10.0,0,9.0,5.0
1,1,14.0,0,0,1,1,5.0,1,6.0,8.0
1,1,14.0,0,0,1,0,9.0,1,10.0,12.0
0,1,18.0,0,0,1,1,7.0,1,7.0,10.0
1,1,15.0,0,0,0,0,6.0,1,6.0,7.0
1,1,15.0,1,0,0,0,3.0,0,5.0,5.0
1,1,15.0,0,0,1,1,7.0,1,5.0,8.0
0,1,15.0,1,0,1,1,6.0,0,8.0,6.0
1,0,13.0,1,1,0,1,6.0,1,7.0,4.0
1,1,15.0,0,0,1,1,6.0,1,9.0,8.0
0,1,18.0,0,1,1,0,8.0,1,12.0,6.0
1,1,17.0,0,0,1,1,11.0,0,7.0,7.0
1,1,14.0,0,0,0,1,7.0,0,6.0,4.0
0,1,15.0,0,0,1,1,7.0,1,9.0,6.0
1,1,18.0,0,0,1,1,7.0,1,9.0,10.0
0,0,16.0,0,0,1,0,8.0,0,10.0,9.0
0,1,20.0,0,1,1,0,9.0,1,11.0,11.0
1,1,16.0,0,0,0,1,6.0,1,7.0,5.0
1,0,15.0,0,0,1,0,6.0,1,9.0,9.0
0,1,13.0,1,1,1,1,10.0,1,6.0,8.0
0,1,13.0,0,0,0,1,9.0,0,10.0,4.0
1,1,17.0,1,0,0,1,6.0,1,8.0,4.0
0,1,14.0,1,0,0,1,7.0,0,6.0,6.0
0,1,13.0,0,0,0,1,9.0,0,8.0,9.0
0,1,16.0,1,1,0,1,6.0,0,9.0,11.0
1,1,14.0,0,0,1,1,5.0,1,10.0,9.0
1,1,16.0,1,0,0,1,5.0,1,8.0,7.0
1,1,15.0,1,0,1,1,6.0,0,4.0,7.0
0,1,14.0,1,0,1,1,9.0,1,10.0,10.0
0,0,16.0,1,0,1,0,11.0,1,12.0,8.0
1,1,13.0,0,0,1,1,6.0,1,10.0,10.0
0,1,16.0,0,0,0,1,8.0,1,7.0,7.0
0,1,14.0,0,0,1,0,11.0,1,10.0,8.0
1,1,15.0,0,0,1,0,4.0,0,9.0,8.0
1,1,17.0,0,0,0,1,8.0,1,6.0,6.0
1,1,15.0,0,0,0,1,5.0,0,9.0,9.0
1,1,14.0,0,0,0,0,6.0,0,8.0,6.0
1,1,17.0,0,0,1,0,9.0,1,6.0,9.0
1,1,15.0,1,0,0,1,6.0,0,5.0,4.0
1,1,17.0,0,0,0,1,8.0,0,8.0,5.0
0,1,14.0,1,0,0,1,8.0,1,6.0,3.0
1,1,14.0,1,0,0,1,4.0,0,4.0,5.0
1,1,13.0,0,0,0,1,8.0,1,6.0,7.0
1,1,13.0,1,1,0,1,6.0,0,7.0,7.0
1,0,15.0,0,0,1,1,8.0,1,6.0,11.0
1,0,14.0,1,0,0,0,9.0,0,8.0,8.0
1,1,14.0,0,0,0,1,8.0,1,10.0,10.0
0,0,15.0,1,1,1,1,8.0,0,10.0,6.0
1,1,13.0,0,0,1,1,7.0,0,8.0,12.0
1,0,15.0,1,0,1,0,9.0,1,12.0,7.0
0,0,14.0,0,0,1,0,7.0,0,12.0,10.0
0,1,19.0,1,0,0,1,7.0,0,8.0,9.0
1,1,13.0,0,0,0,1,4.0,1,12.0,5.0
1,1,13.0,1,0,1,1,4.0,1,9.0,9.0
1,0,14.0,1,1,1,1,8.0,0,9.0,10.0
1,1,15.0,0,0,0,0,12.0,0,10.0,7.0
0,1,13.0,1,1,0,1,6.0,1,4.0,6.0
1,1,14.0,0,0,1,0,6.0,1,10.0,9.0
0,1,13.0,0,0,1,0,9.0,1,7.0,9.0
1,1,13.0,1,0,0,1,6.0,0,6.0,8.0
1,0,16.0,0,0,0,1,7.0,0,5.0,11.0
1,1,17.0,1,0,1,1,8.0,1,10.0,9.0
1,0,16.0,0,0,0,1,9.0,0,9.0,6.0
1,1,17.0,1,0,0,1,9.0,1,8.0,1.0
0,1,15.0,1,1,0,1,8.0,0,8.0,6.0
1,1,16.0,0,0,1,1,10.0,0,12.0,8.0
0,1,16.0,0,0,0,1,4.0,1,6.0,9.0
1,1,15.0,0,0,1,1,6.0,0,10.0,6.0
1,1,13.0,0,1,1,1,6.0,0,12.0,7.0
1,0,15.0,1,0,1,1,8.0,0,7.0,7.0
1,1,17.0,0,0,1,1,7.0,0,11.0,7.0
1,1,13.0,0,0,1,1,4.0,1,6.0,11.0
0,1,19.0,0,0,1,1,12.0,0,9.0,10.0
1,1,17.0,0,0,1,1,11.0,0,7.0,9.0
0,1,18.0,1,0,0,0,7.0,1,6.0,8.0
1,0,19.0,0,0,0,0,10.0,0,11.0,5.0
1,1,13.0,0,0,0,1,6.0,0,7.0,10.0
1,1,17.0,0,0,1,0,6.0,0,9.0,6.0
0,0,15.0,1,1,1,1,6.0,0,8.0,6.0
0,0,17.0,0,1,1,1,8.0,0,10.0,11.0
0,1,17.0,1,1,0,1,7.0,0,7.0,5.0
1,1,14.0,1,1,0,1,10.0,0,7.0,5.0
1,1,13.0,0,0,1,1,9.0,0,5.0,7.0
1,0,13.0,1,0,1,0,6.0,0,6.0,8.0
0,1,15.0,0,0,0,0,8.0,1,10.0,7.0
0,0,13.0,1,0,0,1,5.0,1,6.0,10.0
1,1,13.0,0,0,1,1,7.0,1,7.0,4.0
1,1,14.0,1,0,1,1,5.0,0,9.0,8.0
1,1,16.0,0,1,0,1,8.0,1,9.0,10.0
1,1,13.0,0,0,0,0,10.0,0,7.0,9.0
1,1,17.0,0,0,0,1,4.0,0,8.0,7.0
0,1,13.0,1,1,1,1,6.0,1,8.0,9.0
1,1,18.0,0,1,1,1,7.0,0,5.0,7.0
0,0,13.0,1,0,0,1,5.0,0,6.0,6.0
1,1,15.0,0,0,1,1,7.0,0,8.0,9.0
1,0,15.0,0,1,0,1,7.0,1,7.0,9.0
1,1,13.0,0,0,1,1,4.0,1,8.0,11.0
1,1,14.0,0,0,1,1,6.0,1,9.0,7.0
1,0,15.0,0,0,1,0,7.0,0,10.0,7.0
1,1,14.0,0,0,1,1,5.0,1,11.0,3.0
0,0,14.0,0,0,1,1,8.0,1,6.0,10.0
0,1,14.0,1,0,1,1,6.0,1,8.0,6.0
1,0,15.0,0,0,1,0,6.0,1,11.0,11.0
0,0,13.0,0,0,1,1,4.0,0,7.0,10.0
0,0,18.0,0,0,1,1,8.0,1,7.0,11.0
1,1,13.0,0,0,1,1,5.0,0,11.0,10.0
0,0,15.0,0,1,0,0,9.0,0,10.0,8.0
0,1,15.0,0,0,0,1,7.0,0,10.0,9.0
1,1,14.0,0,0,1,1,6.0,0,8.0,10.0
1,1,13.0,0,0,0,1,6.0,0,9.0,8.0
1,1,16.0,0,0,1,1,4.0,1,7.0,7.0
1,1,13.0,0,0,1,1,8.0,1,8.0,5.0
0,1,16.0,1,1,0,1,6.0,0,8.0,8.0
1,1,15.0,1,0,0,1,5.0,1,6.0,5.0
0,0,14.0,0,0,1,1,7.0,0,6.0,9.0
1,1,13.0,0,0,1,1,7.0,1,8.0,9.0
1,1,14.0,0,0,0,0,6.0,0,6.0,4.0
1,1,13.0,0,0,0,1,5.0,1,6.0,3.0
0,1,16.0,0,0,1,0,5.0,1,12.0,7.0
0,1,15.0,0,0,1,1,10.0,1,7.0,10.0
1,1,16.0,0,0,0,0,10.0,0,7.0,1.0
1,1,13.0,0,0,0,0,7.0,1,4.0,8.0
1,1,14.0,0,0,1,1,8.0,1,9.0,9.0
0,1,16.0,0,0,0,0,5.0,0,6.0,8.0
1,1,15.0,1,0,0,0,9.0,1,6.0,8.0
1,1,17.0,0,0,1,1,5.0,1,6.0,8.0
1,1,16.0,0,0,0,0,9.0,1,7.0,8.0
1,0,16.0,0,0,1,1,6.0,1,7.0,12.0
1,1,15.0,0,0,1,0,9.0,1,9.0,9.0
1,1,18.0,0,0,0,1,4.0,0,6.0,9.0
1,1,14.0,0,0,1,1,7.0,1,9.0,7.0
1,0,14.0,0,0,1,1,5.0,0,8.0,9.0
1,1,15.0,0,0,1,1,6.0,1,5.0,5.0
1,1,15.0,0,0,1,1,2.0,1,8.0,8.0
1,1,15.0,1,0,0,1,1.0,0,6.0,9.0
1,1,17.0,0,0,0,1,8.0,1,3.0,8.0
1,1,16.0,0,0,0,1,7.0,0,7.0,6.0
1,0,14.0,0,0,1,1,9.0,0,8.0,7.0
1,1,19.0,1,0,0,0,5.0,1,5.0,7.0
1,1,14.0,0,0,1,1,3.0,0,8.0,7.0
0,1,16.0,1,0,1,0,8.0,1,10.0,12.0
1,1,13.0,1,1,1,1,4.0,1,8.0,8.0
0,1,14.0,1,1,0,1,9.0,1,6.0,10.0
1,0,14.0,1,0,1,1,7.0,1,7.0,8.0
1,1,19.0,0,0,0,1,8.0,0,8.0,8.0
1,1,15.0,0,0,1,1,5.0,1,8.0,7.0
1,1,15.0,0,0,0,1,6.0,0,5.0,6.0
0,1,13.0,0,0,1,1,7.0,0,7.0,9.0
1,1,15.0,0,1,1,1,6.0,0,5.0,9.0
1,1,13.0,1,0,0,1,4.0,0,7.0,5.0
1,0,14.0,1,0,1,0,7.0,1,8.0,8.0
0,1,16.0,1,0,0,1,7.0,1,10.0,8.0
1,0,14.0,0,0,0,1,8.0,1,9.0,5.0
1,0,18.0,0,0,0,1,9.0,1,7.0,8.0
0,1,18.0,0,0,1,0,7.0,1,3.0,9.0
1,1,15.0,0,0,1,0,8.0,1,9.0,12.0
1,1,15.0,0,0,0,1,7.0,1,7.0,6.0
0,1,15.0,1,0,1,0,7.0,0,8.0,9.0
0,1,16.0,0,0,1,0,8.0,0,7.0,4.0
0,1,16.0,0,0,1,1,7.0,1,8.0,12.0
1,1,14.0,0,0,0,1,4.0,1,9.0,6.0
0,1,13.0,0,0,1,0,7.0,0,12.0,7.0
1,1,16.0,1,0,1,1,5.0,1,7.0,7.0
1,0,15.0,0,0,1,0,6.0,1,8.0,11.0
1,1,14.0,1,0,1,1,6.0,0,10.0,8.0
1,0,15.0,0,0,1,1,10.0,0,7.0,9.0
0,1,13.0,0,0,1,1,9.0,0,9.0,10.0
1,0,16.0,0,1,1,0,6.0,1,7.0,11.0
0,1,15.0,0,0,0,1,6.0,1,9.0,5.0
0,1,15.0,1,0,0,1,7.0,1,6.0,7.0
1,1,16.0,0,0,1,1,6.0,1,10.0,5.0
0,1,19.0,1,0,0,1,9.0,1,7.0,10.0
1,1,15.0,0,0,0,0,8.0,0,9.0,4.0
0,1,16.0,1,0,0,0,11.0,1,9.0,8.0
1,1,17.0,0,0,0,0,5.0,0,9.0,4.0
0,1,15.0,0,0,1,1,8.0,1,10.0,10.0
1,0,17.0,1,0,1,1,8.0,1,8.0,12.0
0,1,18.0,0,0,1,1,5.0,1,9.0,9.0
1,1,15.0,0,0,0,1,5.0,0,5.0,7.0
1,1,21.0,1,0,1,1,7.0,1,9.0,7.0
0,0,13.0,0,1,0,1,9.0,0,5.0,8.0
1,1,13.0,0,0,1,1,5.0,1,6.0,9.0
1,0,13.0,0,0,0,1,9.0,0,7.0,6.0
1,1,17.0,0,0,1,1,8.0,1,6.0,5.0
1,1,16.0,0,0,0,1,9.0,0,8.0,5.0
1,0,14.0,0,0,1,1,6.0,1,10.0,9.0
1,1,17.0,0,1,1,1,8.0,1,3.0,10.0
0,1,14.0,1,0,1,0,7.0,1,9.0,4.0
1,1,20.0,0,0,0,1,8.0,1,9.0,9.0
1,1,14.0,0,0,1,0,5.0,1,6.0,12.0
1,1,17.0,0,0,0,1,3.0,1,9.0,6.0
0,1,13.0,0,0,1,1,12.0,0,12.0,11.0
0,0,16.0,1,1,1,1,8.0,1,8.0,6.0
1,1,14.0,0,0,1,1,6.0,1,8.0,7.0
1,1,13.0,1,1,0,1,3.0,0,6.0,5.0
1,1,13.0,0,0,0,0,7.0,0,8.0,6.0
1,0,14.0,1,1,0,1,5.0,0,8.0,7.0
1,1,17.0,1,0,0,0,9.0,1,11.0,7.0
1,1,15.0,0,0,0,1,5.0,0,7.0,5.0
1,1,13.0,0,0,0,0,9.0,1,7.0,6.0
1,1,18.0,0,0,1,1,2.0,1,4.0,6.0
0,1,16.0,0,0,1,1,9.0,0,10.0,8.0
0,1,17.0,0,0,0,1,7.0,1,10.0,2.0
1,1,16.0,0,0,1,0,7.0,1,11.0,6.0
1,0,20.0,1,1,1,0,12.0,0,10.0,9.0
0,1,15.0,0,0,1,0,10.0,1,6.0,12.0
1,1,13.0,0,0,0,0,7.0,1,3.0,9.0
0,1,17.0,1,0,1,1,4.0,1,10.0,5.0
0,1,13.0,0,0,1,1,2.0,0,9.0,11.0
0,1,16.0,0,1,1,1,6.0,1,11.0,9.0
1,1,14.0,0,0,1,1,6.0,0,7.0,9.0
0,1,18.0,0,0,1,1,10.0,0,8.0,6.0
1,1,15.0,0,0,1,1,1.0,1,9.0,10.0
1,1,13.0,1,0,0,1,6.0,1,4.0,4.0
1,1,15.0,1,1,0,0,9.0,0,8.0,4.0
1,1,13.0,0,0,1,1,6.0,0,3.0,7.0
0,1,19.0,1,0,0,1,8.0,0,5.0,8.0
1,0,15.0,0,0,1,1,6.0,0,9.0,5.0
1,0,16.0,1,0,0,1,8.0,1,8.0,8.0
1,1,14.0,0,0,0,1,5.0,0,6.0,9.0
1,1,16.0,0,1,1,1,7.0,1,7.0,4.0
1,1,15.0,0,0,0,1,8.0,1,7.0,4.0
0,1,19.0,0,0,1,0,12.0,1,10.0,11.0
1,1,13.0,0,0,1,1,7.0,1,7.0,7.0
1,1,14.0,1,0,0,1,6.0,0,2.0,6.0
1,1,14.0,0,0,0,1,3.0,0,5.0,8.0
1,1,13.0,1,1,1,1,4.0,1,9.0,7.0
0,1,15.0,0,0,1,1,8.0,1,7.0,5.0
0,1,17.0,1,0,0,1,8.0,1,7.0,7.0
0,0,14.0,0,0,1,1,11.0,0,10.0,9.0
0,1,15.0,0,0,1,1,8.0,1,7.0,12.0
1,1,16.0,0,0,0,1,8.0,1,7.0,4.0
1,1,16.0,0,0,0,0,7.0,1,11.0,11.0
1,1,14.0,0,0,0,1,10.0,0,3.0,7.0
1,1,13.0,0,0,0,0,6.0,0,8.0,12.0
1,1,14.0,0,0,0,1,10.0,0,7.0,10.0
1,1,19.0,0,0,1,1,10.0,0,10.0,9.0
0,1,13.0,0,0,1,1,8.0,0,6.0,11.0
1,1,13.0,0,0,1,1,4.0,1,6.0,11.0
1,1,15.0,0,0,0,1,8.0,0,4.0,3.0
0,1,15.0,0,0,1,0,8.0,1,9.0,9.0
1,1,14.0,0,0,1,1,4.0,1,8.0,6.0
1,0,15.0,1,0,1,0,8.0,1,10.0,8.0
0,1,15.0,0,0,1,1,5.0,1,8.0,10.0
1,1,16.0,0,0,1,1,7.0,0,4.0,8.0
1,1,16.0,0,0,1,1,7.0,0,9.0,9.0
1,1,13.0,1,0,1,0,9.0,1,7.0,9.0
0,1,16.0,0,0,1,0,7.0,1,12.0,10.0
1,1,15.0,0,0,1,0,8.0,1,8.0,9.0
1,0,14.0,0,1,1,1,8.0,0,6.0,12.0
0,1,17.0,0,0,1,1,6.0,0,6.0,8.0
1,1,15.0,0,0,1,0,9.0,0,12.0,9.0
1,1,14.0,1,0,0,0,6.0,0,6.0,4.0
1,1,14.0,0,0,0,1,10.0,1,7.0,4.0
0,1,16.0,0,0,0,1,10.0,0,8.0,11.0
0,1,15.0,1,1,0,0,8.0,0,11.0,9.0
0,1,16.0,0,1,0,1,10.0,0,7.0,7.0
1,1,13.0,0,0,1,1,5.0,1,7.0,6.0
1,1,17.0,0,0,0,1,9.0,0,6.0,7.0
0,1,15.0,0,0,1,1,9.0,0,7.0,8.0
1,1,16.0,0,0,1,1,8.0,1,6.0,10.0
1,1,18.0,1,1,0,1,5.0,0,6.0,6.0
1,1,18.0,0,0,0,1,5.0,1,7.0,7.0
0,1,13.0,0,0,0,0,10.0,1,7.0,4.0
1,1,17.0,0,1,1,1,9.0,0,6.0,5.0
1,1,16.0,0,0,0,1,12.0,0,6.0,7.0
1,1,17.0,0,0,1,1,8.0,1,9.0,6.0
0,1,13.0,0,0,0,1,9.0,0,9.0,8.0
1,0,13.0,0,0,1,1,12.0,1,11.0,9.0
1,1,16.0,0,0,0,1,6.0,0,6.0,10.0
1,0,13.0,0,1,1,1,6.0,1,7.0,7.0
0,1,14.0,1,0,1,1,7.0,1,7.0,8.0
1,0,18.0,0,0,1,1,8.0,1,8.0,12.0
0,1,19.0,1,0,1,1,7.0,1,7.0,6.0
0,1,15.0,0,0,1,1,6.0,0,8.0,6.0
1,1,17.0,1,0,0,0,8.0,0,4.0,8.0
0,1,15.0,0,0,1,0,9.0,1,8.0,9.0
1,1,17.0,1,0,0,1,2.0,1,4.0,5.0
1,0,16.0,1,1,0,1,4.0,1,9.0,6.0
1,1,13.0,0,0,1,1,7.0,1,10.0,12.0
1,1,18.0,0,0,0,0,11.0,0,4.0,6.0
1,1,13.0,0,0,0,1,3.0,1,6.0,9.0
1,1,13.0,0,0,1,1,5.0,1,8.0,6.0
1,0,17.0,0,0,1,1,6.0,1,6.0,5.0
0,1,14.0,0,0,1,1,7.0,1,10.0,7.0
1,1,17.0,1,0,0,1,9.0,0,3.0,6.0
0,0,16.0,0,0,1,0,7.0,0,11.0,11.0
0,0,13.0,1,0,0,1,5.0,1,8.0,3.0
0,1,13.0,0,0,1,1,9.0,1,6.0,7.0
1,0,19.0,1,1,0,1,4.0,0,8.0,10.0
1,1,16.0,0,0,0,1,7.0,0,6.0,4.0
0,1,18.0,0,0,1,0,12.0,0,6.0,12.0
1,1,15.0,0,0,0,1,5.0,1,5.0,6.0
1,1,17.0,0,0,1,1,4.0,0,6.0,6.0
1,0,18.0,1,1,1,0,9.0,1,12.0,12.0
1,0,15.0,0,1,1,1,6.0,0,10.0,9.0
0,1,14.0,0,1,0,1,7.0,1,5.0,5.0
1,1,15.0,0,0,1,0,7.0,1,10.0,10.0
1,1,15.0,0,0,0,1,6.0,0,8.0,5.0
0,1,13.0,0,0,0,1,9.0,0,7.0,9.0
1,1,13.0,0,0,1,1,7.0,0,11.0,9.0
0,1,16.0,0,0,1,1,3.0,0,8.0,11.0
0,1,16.0,0,0,1,1,12.0,0,7.0,8.0
0,1,16.0,0,0,1,1,5.0,0,9.0,10.0
1,1,14.0,0,0,0,1,10.0,0,5.0,10.0
1,0,13.0,1,0,0,1,6.0,1,6.0,8.0
1,1,15.0,0,0,1,1,3.0,1,10.0,7.0
0,1,15.0,0,0,1,1,7.0,1,7.0,12.0
1,1,13.0,0,0,0,1,7.0,1,9.0,6.0
1,1,16.0,0,0,1,1,5.0,1,7.0,8.0
1,1,16.0,0,0,0,0,5.0,0,6.0,8.0
1,1,14.0,0,0,0,1,5.0,1,6.0,5.0
1,1,15.0,1,0,0,1,5.0,0,9.0,4.0
0,1,17.0,1,1,0,1,7.0,1,4.0,8.0
1,0,16.0,1,0,1,1,8.0,1,6.0,11.0
0,1,13.0,0,0,1,1,10.0,0,10.0,12.0
0,1,18.0,0,0,1,1,10.0,0,8.0,7.0
1,0,17.0,0,1,1,1,9.0,0,4.0,9.0
1,1,13.0,0,0,1,1,6.0,1,7.0,7.0
1,0,14.0,0,0,0,1,7.0,0,8.0,10.0
0,1,14.0,0,1,1,0,6.0,1,8.0,11.0
1,1,16.0,0,0,1,0,8.0,0,7.0,5.0
1,1,16.0,0,0,1,0,8.0,1,7.0,9.0
1,1,16.0,0,0,0,1,6.0,0,7.0,6.0
0,1,16.0,1,0,1,0,8.0,1,12.0,10.0
1,1,13.0,0,0,1,1,7.0,1,8.0,8.0
1,1,14.0,0,0,1,1,8.0,1,7.0,8.0
1,1,13.0,0,0,1,0,6.0,1,7.0,7.0
1,0,17.0,0,0,1,1,11.0,0,9.0,10.0
1,1,17.0,0,0,1,1,6.0,1,10.0,7.0
1,0,17.0,0,0,1,1,7.0,1,7.0,8.0
0,1,14.0,0,0,1,1,7.0,0,10.0,9.0
1,1,16.0,0,0,1,1,4.0,0,6.0,8.0
1,0,16.0,1,0,0,1,9.0,0,6.0,9.0
1,0,18.0,0,0,1,1,5.0,1,11.0,11.0
0,1,13.0,1,0,1,1,7.0,1,8.0,8.0
1,1,16.0,0,0,1,0,8.0,1,8.0,6.0
0,1,14.0,0,1,1,1,6.0,0,7.0,12.0
1,1,14.0,1,0,0,1,5.0,1,6.0,9.0
1,1,16.0,1,0,1,1,5.0,1,9.0,10.0
1,1,16.0,0,0,1,1,6.0,1,9.0,7.0
1,1,13.0,0,0,0,0,8.0,1,7.0,9.0
0,1,16.0,0,0,1,0,9.0,1,6.0,8.0
1,0,16.0,1,0,1,0,9.0,1,8.0,9.0
1,1,18.0,0,1,0,1,9.0,0,6.0,6.0
1,1,15.0,0,0,1,1,7.0,1,9.0,7.0
0,1,17.0,0,0,1,0,9.0,1,10.0,8.0
0,1,13.0,0,0,0,0,6.0,1,9.0,11.0
1,1,14.0,0,0,1,0,6.0,0,9.0,8.0
1,0,13.0,1,0,1,0,5.0,1,10.0,8.0
1,1,15.0,1,0,1,1,7.0,1,5.0,7.0
0,1,18.0,0,0,1,0,6.0,0,7.0,8.0
0,1,13.0,0,0,0,1,12.0,0,8.0,7.0
1,1,14.0,0,0,1,1,6.0,1,6.0,5.0
1,1,15.0,1,0,0,0,8.0,0,5.0,7.0
1,1,14.0,0,0,1,1,7.0,1,8.0,11.0
0,0,18.0,1,0,0,0,9.0,0,10.0,8.0
1,1,17.0,0,0,1,1,7.0,1,9.0,9.0
1,1,17.0,0,0,1,1,7.0,0,5.0,9.0
1,1,14.0,0,0,1,0,10.0,1,10.0,9.0
1,0,15.0,0,0,1,1,6.0,1,10.0,8.0
1,1,16.0,0,0,1,1,6.0,0,8.0,11.0
1,1,15.0,0,0,1,1,6.0,1,6.0,10.0
0,1,13.0,0,0,0,1,9.0,0,6.0,5.0
1,1,16.0,0,0,1,1,7.0,0,8.0,7.0
1,1,13.0,0,0,0,1,6.0,0,6.0,8.0
1,0,17.0,1,0,0,1,7.0,0,3.0,7.0
1,1,18.0,1,0,0,1,5.0,1,8.0,8.0
1,1,16.0,1,0,0,1,7.0,0,5.0,6.0
0,1,17.0,1,0,0,0,9.0,0,10.0,9.0
0,1,15.0,0,0,1,0,9.0,0,8.0,12.0
1,1,13.0,0,0,1,1,5.0,1,9.0,7.0
0,1,18.0,0,0,1,0,9.0,1,5.0,12.0
0,1,13.0,0,0,0,1,6.0,0,11.0,7.0
0,1,19.0,1,0,1,1,9.0,1,8.0,8.0
1,1,14.0,0,0,0,0,9.0,1,7.0,10.0
1,1,15.0,0,0,1,1,6.0,1,9.0,9.0
1,1,15.0,1,0,1,1,5.0,1,6.0,7.0
0,0,16.0,1,1,0,1,9.0,1,9.0,7.0
1,1,14.0,1,0,0,1,2.0,1,4.0,1.0
0,1,14.0,0,0,1,1,4.0,0,10.0,10.0
0,0,17.0,1,0,1,1,9.0,0,6.0,12.0
1,1,13.0,0,0,1,1,5.0,1,4.0,11.0
1,0,14.0,0,1,1,1,8.0,1,12.0,6.0
1,1,13.0,0,0,1,0,5.0,1,8.0,9.0
0,1,15.0,0,0,1,1,7.0,0,7.0,7.0
1,1,15.0,0,0,1,1,10.0,1,8.0,11.0
1,0,15.0,0,1,1,1,8.0,0,6.0,9.0
0,1,16.0,0,0,0,0,10.0,0,7.0,6.0
1,1,17.0,0,0,0,0,8.0,0,8.0,11.0
0,1,17.0,0,0,1,1,7.0,1,10.0,11.0
1,1,15.0,0,0,1,1,7.0,1,10.0,7.0
1,1,15.0,0,0,1,0,9.0,1,9.0,6.0
1,1,13.0,0,0,1,1,8.0,1,10.0,4.0
1,1,18.0,0,0,0,1,8.0,0,3.0,7.0
0,0,15.0,1,1,1,1,12.0,0,7.0,10.0
1,1,13.0,1,1,1,1,6.0,1,8.0,9.0
1,1,14.0,0,0,0,0,11.0,0,4.0,8.0
1,0,13.0,0,0,1,1,6.0,1,7.0,8.0
1,1,17.0,0,0,1,1,7.0,0,10.0,8.0
1,1,14.0,0,0,1,0,4.0,0,7.0,7.0
0,1,14.0,1,1,1,1,5.0,1,10.0,8.0
0,1,14.0,0,0,1,1,7.0,1,9.0,11.0
1,0,13.0,1,0,0,0,3.0,0,8.0,8.0
0,1,13.0,0,0,1,0,9.0,1,9.0,9.0
0,0,16.0,1,0,1,1,6.0,1,12.0,10.0
1,1,13.0,0,0,0,1,6.0,0,7.0,7.0
